INFO: Command line args:
['VAMBPhaseTempUtil.py', '--cfgfile=cfgfile.py', '--cfgname=cfg3phn', '--testlistfile=testlistTemp.py', '--testlistname=testlistphsweep3pwrlvl', '--dbname=TempChamber', '--tblname=uvpphase3', '--loguvptemps', '--logcomments=TX Phase at COM 25 3 UVP TXing', '--comchan=25']
E INFO: New Option txipaddr -- Adding option to option dictionary
E INFO: New Option siggenport -- Adding option to option dictionary
E INFO: New Option teport -- Adding option to option dictionary
E INFO: New Option oscport -- Adding option to option dictionary
E INFO: New Option tcport -- Adding option to option dictionary
E INFO: New Option txonuvplist -- Adding option to option dictionary
E INFO: New Option chanmap -- Adding option to option dictionary
E INFO: New Option sshport -- Adding option to option dictionary
E INFO: New Option oscipaddr -- Adding option to option dictionary
E INFO: New Option teipaddr -- Adding option to option dictionary
E INFO: New Option tempchamip -- Adding option to option dictionary
E INFO: New Option tempchammode -- Adding option to option dictionary
E INFO: New Option siggenipaddr -- Adding option to option dictionary
E INFO: New Option txport -- Adding option to option dictionary
E INFO: New Option phaseliststep -- Adding option to option dictionary
self.rxcmdfmt = [u'sudo {}fpga -w 0x214 -m 0x{:X} -c 0x{:X} -v 0', u'sudo {}uvp_util -w  ENCODE_SIZE -m 0x{:X} -c 0x{:X} -v 32']
INFO: phase list = [0, 3, 6, 9, 12, 15, 18, 21, 24, 27, 30, 33, 36, 39, 42, 45, 48, 51, 54, 57, 60, 63, 66, 69, 72, 75, 78, 81, 84, 87, 90, 93, 96, 99, 102, 105, 108, 111, 114, 117, 120, 123, 126, 129, 132, 135, 138, 141, 144, 147, 150, 153, 156, 159, 162, 165, 168, 171, 174, 177, 180, 183, 186, 189, 192, 195, 198, 201, 204, 207, 210, 213, 216, 219, 222, 225, 228, 231, 234, 237, 240, 243, 246, 249, 252, 255, 258, 261, 264, 267, 270, 273, 276, 279, 282, 285, 288, 291, 294, 297, 300, 303, 306, 309, 312, 315, 318, 321, 324, 327, 330, 333, 336, 339, 342, 345, 348, 351, 354, 357]

INFO: OSC (10.10.0.122, 10.10.0.122, 5025)
INFO: SIGGEN (a-n5182a-42671.ossiainc.local, 10.10.0.72, 5025)
INFO: TE  (A-34972A-26082, 10.10.0.71, 5025)
INFO: TC  (np5110_7940.ossiainc.local, 10.10.0.70, 4001)
INFO: uvpList  = '[9, 14, 15]'
INFO: chanlist = '[106, 113, 116]'
INFO: chanMap  = '{113: 15, 106: 9, 116: 14}'
INFO: TxOnUvp  = '[9, 14, 15]'
ERROR: Get COM Channel Failed
INFO: Current COM Channel is '25'
ValueError -- ValueError('No JSON object could be decoded',) cmd was '{"Command":{"Type":"Pause"},                                               "Result":{"Status":"NULL"}}'
rtn = 'u'''

INFO: setupUVP cmdstrlst='[u'sudo uvp_util -w  LDOADC1EN_IDLE -m 0x1 -c 0x6100 -v 1']' UvpLst='[9, 14, 15]'
INFO: setupUVP cmdstrlst='[u'sudo uvp_util -w  LDOADC1EN_IDLE -m 0x1 -c 0x6100 -v 1', u'sudo uvp_util -w  TEMPADC_GAIN -m 0x1 -c 0x6100 -v 32']' UvpLst='[9, 14, 15]'
INFO: setupUVP cmdstrlst='[u'sudo uvp_util -w  LDOADC1EN_IDLE -m 0x1 -c 0x6100 -v 1', u'sudo uvp_util -w  TEMPADC_GAIN -m 0x1 -c 0x6100 -v 32', u'sudo uvp_util -w  TMPSNSCMBUFFEN -m 0x1 -c 0x6100 -v 1']' UvpLst='[9, 14, 15]'
INFO: setupUVP cmdstrlst='[u'sudo uvp_util -w  LDOADC1EN_IDLE -m 0x1 -c 0x6100 -v 1', u'sudo uvp_util -w  TEMPADC_GAIN -m 0x1 -c 0x6100 -v 32', u'sudo uvp_util -w  TMPSNSCMBUFFEN -m 0x1 -c 0x6100 -v 1', u'sudo uvp_util -w  TMPSNSCOMPENCNT -m 0x1 -c 0x6100 -v 4']' UvpLst='[9, 14, 15]'
INFO: setupUVP cmdstrlst='[u'sudo uvp_util -w  LDOADC1EN_IDLE -m 0x1 -c 0x6100 -v 1', u'sudo uvp_util -w  TEMPADC_GAIN -m 0x1 -c 0x6100 -v 32', u'sudo uvp_util -w  TMPSNSCMBUFFEN -m 0x1 -c 0x6100 -v 1', u'sudo uvp_util -w  TMPSNSCOMPENCNT -m 0x1 -c 0x6100 -v 4', u'sudo uvp_util -w  TMPSNSCOMPSELEN -m 0x1 -c 0x6100 -v 1']' UvpLst='[9, 14, 15]'
INFO: setupUVP cmdstrlst='[u'sudo uvp_util -w  LDOADC1EN_IDLE -m 0x1 -c 0x6100 -v 1', u'sudo uvp_util -w  TEMPADC_GAIN -m 0x1 -c 0x6100 -v 32', u'sudo uvp_util -w  TMPSNSCMBUFFEN -m 0x1 -c 0x6100 -v 1', u'sudo uvp_util -w  TMPSNSCOMPENCNT -m 0x1 -c 0x6100 -v 4', u'sudo uvp_util -w  TMPSNSCOMPSELEN -m 0x1 -c 0x6100 -v 1', u'sudo uvp_util -w  TMPSNSEN -m 0x1 -c 0x6100 -v 1']' UvpLst='[9, 14, 15]'
INFO: setupUVP cmdstrlst='[u'sudo uvp_util -w  LDOADC1EN_IDLE -m 0x1 -c 0x6100 -v 1', u'sudo uvp_util -w  TEMPADC_GAIN -m 0x1 -c 0x6100 -v 32', u'sudo uvp_util -w  TMPSNSCMBUFFEN -m 0x1 -c 0x6100 -v 1', u'sudo uvp_util -w  TMPSNSCOMPENCNT -m 0x1 -c 0x6100 -v 4', u'sudo uvp_util -w  TMPSNSCOMPSELEN -m 0x1 -c 0x6100 -v 1', u'sudo uvp_util -w  TMPSNSEN -m 0x1 -c 0x6100 -v 1', u'sudo uvp_util -w  TEMPADCEN -m 0x1 -c 0x6100 -v 1']' UvpLst='[9, 14, 15]'
INFO: setupUVP cmdstrlst='[u'sudo uvp_util -w  LDOADC1EN_IDLE -m 0x1 -c 0x6100 -v 1', u'sudo uvp_util -w  TEMPADC_GAIN -m 0x1 -c 0x6100 -v 32', u'sudo uvp_util -w  TMPSNSCMBUFFEN -m 0x1 -c 0x6100 -v 1', u'sudo uvp_util -w  TMPSNSCOMPENCNT -m 0x1 -c 0x6100 -v 4', u'sudo uvp_util -w  TMPSNSCOMPSELEN -m 0x1 -c 0x6100 -v 1', u'sudo uvp_util -w  TMPSNSEN -m 0x1 -c 0x6100 -v 1', u'sudo uvp_util -w  TEMPADCEN -m 0x1 -c 0x6100 -v 1', u'sudo uvp_util -w  LDOADC1EN_SENDPWR -m 0x1 -c 0x6100 -v 1']' UvpLst='[9, 14, 15]'
INFO: setupUVP cmdstrlst='[u'sudo fpga -w 0x214 -m 0x1 -c 0x6100 -v 1']' UvpLst='[9, 14, 15]'
INFO: amu_cms :
INFO:      [u'TimeStamp', u'%d', u'VARCHAR(20)']
INFO:      [u'SampleStamp', u'%5.2f', u'VARCHAR(20)']
INFO:      [u'TCStatus', u'%s', u'VARCHAR(20)']
INFO:      [u'TempChamSetPoint', u'%3.1f', u'VARCHAR(20)']
INFO:      [u'TempChamTemp', u'%3.1f', u'VARCHAR(20)']
INFO:      [u'TempChamHeatCool', u'%3.1f', u'VARCHAR(20)']
INFO:      [u'SetPhase', u'%d', u'VARCHAR(20)']
INFO:      [u'PhaseChan1to2', u'%6.3f', u'VARCHAR(20)']
INFO:      [u'PhaseChan1to2Raw', u'%s', u'VARCHAR(20)']
INFO:      [u'PhaseChan1to3', u'%6.3f', u'VARCHAR(20)']
INFO:      [u'PhaseChan1to3Raw', u'%s', u'VARCHAR(20)']
INFO:      [u'PhaseChan1to4', u'%6.3f', u'VARCHAR(20)']
INFO:      [u'PhaseChan1to4Raw', u'%s', u'VARCHAR(20)']
INFO:      [u'ChNum106Temp9', u'%6.3g', u'VARCHAR(20)']
INFO:      [u'ChNum113Temp15', u'%6.3g', u'VARCHAR(20)']
INFO:      [u'ChNum116Temp14', u'%6.3g', u'VARCHAR(20)']
INFO:      [u'amb0uvp9Temp09', u'%s', u'VARCHAR(20)']
INFO:      [u'amb0uvp14Temp14', u'%s', u'VARCHAR(20)']
INFO:      [u'amb0uvp15Temp15', u'%s', u'VARCHAR(20)']
INFO: Set powerlevel to 13
INFO: testTempPoint=False contTime=1800 setpoint=25.0 count=1.0 phaseToUse=0 checkTol=1.0 beginTime=1579888865.06 endtime=1579890665.06 10:31:05 siggenlevel=17.0 initial heatcool=71.31
INFO: Temperature resting at Set point 25.0 for 1800 secs : Start at -- 10:01:05 finish at 10:31:05

INFO: Using phase 0 and siggenpwrlevel 17.0 DBM -- TX test.
INFO: Time to do setUVPhase 3.76899909973
INFO: Time to getDacqData 0.55713391304
Measure Phase -- Ch1to2 Phase raw -1.3442E+02 Phase 225.58
Measure Phase -- Ch1to3 Phase raw -4.761E+01 Phase 312.39
Measure Phase -- Ch1to4 Phase raw -9.718E+01 Phase 262.82
INFO: Time to getOSCPhase 3.09776592255
INFO: Time to getUVPTemps 2.37473988533
INFO: Time to complete logcount 0 = 6.26453590393
INFO: Time to complete Phase 0 = 10.50228405
INFO: Time to ContDelay sleep  -- ContDelay 39.4976468086 : Start at -- 10:01:15 finish at 10:01:55

INFO: testlistlen=41 testTempPoint=False tcTemp=24.3 setpointTemp=25.0 contTime=1800 endTime-time=1749.72254992 siggenpwrlevel=17.0
INFO: Using phase 0 and siggenpwrlevel 17.0 DBM -- TX test.
INFO: Time to do setUVPhase 3.75441002846
INFO: Time to getDacqData 0.626593112946
Measure Phase -- Ch1to2 Phase raw -1.3347E+02 Phase 226.53
Measure Phase -- Ch1to3 Phase raw -5.151E+01 Phase 308.49
Measure Phase -- Ch1to4 Phase raw -9.275E+01 Phase 267.25
INFO: Time to getOSCPhase 3.12116193771
INFO: Time to getUVPTemps 2.37989902496
INFO: Time to complete logcount 0 = 6.35975599289
INFO: Time to complete Phase 0 = 10.5820820332
INFO: Time to ContDelay sleep  -- ContDelay 39.4178609848 : Start at -- 10:02:05 finish at 10:02:45

INFO: testlistlen=41 testTempPoint=False tcTemp=24.5 setpointTemp=25.0 contTime=1800 endTime-time=1699.68279386 siggenpwrlevel=17.0
INFO: Using phase 0 and siggenpwrlevel 17.0 DBM -- TX test.
INFO: Time to do setUVPhase 3.75478696823
INFO: Time to getDacqData 0.552078008652
Measure Phase -- Ch1to2 Phase raw -1.3869E+02 Phase 221.31
Measure Phase -- Ch1to3 Phase raw -4.936E+01 Phase 310.64
Measure Phase -- Ch1to4 Phase raw -1.0365E+02 Phase 256.35
INFO: Time to getOSCPhase 3.10981297493
INFO: Time to getUVPTemps 2.38313603401
INFO: Time to complete logcount 0 = 6.27688598633
INFO: Time to complete Phase 0 = 10.5006308556
INFO: Time to ContDelay sleep  -- ContDelay 39.4993190765 : Start at -- 10:02:55 finish at 10:03:35

INFO: testlistlen=41 testTempPoint=False tcTemp=24.5 setpointTemp=25.0 contTime=1800 endTime-time=1649.66164303 siggenpwrlevel=17.0
INFO: Using phase 0 and siggenpwrlevel 17.0 DBM -- TX test.
INFO: Time to do setUVPhase 3.76975107193
INFO: Time to getDacqData 0.582956075668
Measure Phase -- Ch1to2 Phase raw -1.2917E+02 Phase 230.83
Measure Phase -- Ch1to3 Phase raw -4.317E+01 Phase 316.83
Measure Phase -- Ch1to4 Phase raw -9.452E+01 Phase 265.48
INFO: Time to getOSCPhase 3.14267015457
INFO: Time to getUVPTemps 2.3740439415
INFO: Time to complete logcount 0 = 6.3353099823
INFO: Time to complete Phase 0 = 10.5746660233
INFO: Time to ContDelay sleep  -- ContDelay 39.4252729416 : Start at -- 10:03:45 finish at 10:04:25

INFO: testlistlen=41 testTempPoint=False tcTemp=24.5 setpointTemp=25.0 contTime=1800 endTime-time=1599.621557 siggenpwrlevel=17.0
INFO: Using phase 0 and siggenpwrlevel 17.0 DBM -- TX test.
INFO: Time to do setUVPhase 3.76517677307
INFO: Time to getDacqData 0.617583990097
Measure Phase -- Ch1to2 Phase raw -1.2736E+02 Phase 232.64
Measure Phase -- Ch1to3 Phase raw -5.016E+01 Phase 309.84
Measure Phase -- Ch1to4 Phase raw -1.0014E+02 Phase 259.86
INFO: Time to getOSCPhase 3.11094594002
INFO: Time to getUVPTemps 2.37484097481
INFO: Time to complete logcount 0 = 6.33770394325
INFO: Time to complete Phase 0 = 10.5732829571
INFO: Time to ContDelay sleep  -- ContDelay 39.4266600609 : Start at -- 10:04:36 finish at 10:05:15

INFO: testlistlen=41 testTempPoint=False tcTemp=24.5 setpointTemp=25.0 contTime=1800 endTime-time=1549.58160591 siggenpwrlevel=17.0
INFO: Using phase 0 and siggenpwrlevel 17.0 DBM -- TX test.
INFO: Time to do setUVPhase 3.77583003044
INFO: Time to getDacqData 0.542222976685
Measure Phase -- Ch1to2 Phase raw -1.3893E+02 Phase 221.07
Measure Phase -- Ch1to3 Phase raw -4.752E+01 Phase 312.48
Measure Phase -- Ch1to4 Phase raw -9.833E+01 Phase 261.67
INFO: Time to getOSCPhase 3.11022305489
INFO: Time to getUVPTemps 2.37372398376
INFO: Time to complete logcount 0 = 6.25914287567
INFO: Time to complete Phase 0 = 10.4996430874
INFO: Time to ContDelay sleep  -- ContDelay 39.5003070831 : Start at -- 10:05:25 finish at 10:06:05

INFO: testlistlen=41 testTempPoint=False tcTemp=24.6 setpointTemp=25.0 contTime=1800 endTime-time=1499.54601693 siggenpwrlevel=17.0
INFO: Using phase 0 and siggenpwrlevel 17.0 DBM -- TX test.
INFO: Time to do setUVPhase 3.76777696609
INFO: Time to getDacqData 0.585005998611
Measure Phase -- Ch1to2 Phase raw -1.3570E+02 Phase 224.3
Measure Phase -- Ch1to3 Phase raw -4.553E+01 Phase 314.47
Measure Phase -- Ch1to4 Phase raw -9.595E+01 Phase 264.05
INFO: Time to getOSCPhase 3.12090206146
INFO: Time to getUVPTemps 2.37502980232
INFO: Time to complete logcount 0 = 6.31367897987
INFO: Time to complete Phase 0 = 10.5472528934
INFO: Time to ContDelay sleep  -- ContDelay 39.452655077 : Start at -- 10:06:16 finish at 10:06:55

INFO: testlistlen=41 testTempPoint=False tcTemp=24.6 setpointTemp=25.0 contTime=1800 endTime-time=1449.531183 siggenpwrlevel=17.0
INFO: Using phase 0 and siggenpwrlevel 17.0 DBM -- TX test.
INFO: Time to do setUVPhase 3.76394605637
INFO: Time to getDacqData 0.540772199631
Measure Phase -- Ch1to2 Phase raw -1.3064E+02 Phase 229.36
Measure Phase -- Ch1to3 Phase raw -5.141E+01 Phase 308.59
Measure Phase -- Ch1to4 Phase raw -9.877E+01 Phase 261.23
INFO: Time to getOSCPhase 3.13535404205
INFO: Time to getUVPTemps 2.37575912476
INFO: Time to complete logcount 0 = 6.28689694405
INFO: Time to complete Phase 0 = 10.5184729099
INFO: Time to ContDelay sleep  -- ContDelay 39.4814741611 : Start at -- 10:07:06 finish at 10:07:45

INFO: testlistlen=41 testTempPoint=False tcTemp=24.5 setpointTemp=25.0 contTime=1800 endTime-time=1399.491853 siggenpwrlevel=17.0
INFO: Using phase 0 and siggenpwrlevel 17.0 DBM -- TX test.
INFO: Time to do setUVPhase 3.75621008873
INFO: Time to getDacqData 0.577981948853
Measure Phase -- Ch1to2 Phase raw -1.3575E+02 Phase 224.25
Measure Phase -- Ch1to3 Phase raw -4.909E+01 Phase 310.91
Measure Phase -- Ch1to4 Phase raw -1.0160E+02 Phase 258.4
INFO: Time to getOSCPhase 3.12068796158
INFO: Time to getUVPTemps 2.3756480217
INFO: Time to complete logcount 0 = 6.31071591377
INFO: Time to complete Phase 0 = 10.5327758789
INFO: Time to ContDelay sleep  -- ContDelay 39.4671750069 : Start at -- 10:07:56 finish at 10:08:35

INFO: testlistlen=41 testTempPoint=False tcTemp=24.6 setpointTemp=25.0 contTime=1800 endTime-time=1349.47761989 siggenpwrlevel=17.0
INFO: Using phase 0 and siggenpwrlevel 17.0 DBM -- TX test.
INFO: Time to do setUVPhase 3.77451705933
INFO: Time to getDacqData 0.615084171295
Measure Phase -- Ch1to2 Phase raw -1.3489E+02 Phase 225.11
Measure Phase -- Ch1to3 Phase raw -5.367E+01 Phase 306.33
Measure Phase -- Ch1to4 Phase raw -9.758E+01 Phase 262.42
INFO: Time to getOSCPhase 3.1106030941
INFO: Time to getUVPTemps 2.37490296364
INFO: Time to complete logcount 0 = 6.33812117577
INFO: Time to complete Phase 0 = 10.5771279335
INFO: Time to ContDelay sleep  -- ContDelay 39.4228150845 : Start at -- 10:08:46 finish at 10:09:25

INFO: testlistlen=41 testTempPoint=False tcTemp=24.7 setpointTemp=25.0 contTime=1800 endTime-time=1299.43773293 siggenpwrlevel=17.0
INFO: Using phase 0 and siggenpwrlevel 17.0 DBM -- TX test.
INFO: Time to do setUVPhase 3.77008700371
INFO: Time to getDacqData 0.558878898621
Measure Phase -- Ch1to2 Phase raw -1.3098E+02 Phase 229.02
Measure Phase -- Ch1to3 Phase raw -4.721E+01 Phase 312.79
Measure Phase -- Ch1to4 Phase raw -9.592E+01 Phase 264.08
INFO: Time to getOSCPhase 3.11089801788
INFO: Time to getUVPTemps 2.3744020462
INFO: Time to complete logcount 0 = 6.27600216866
INFO: Time to complete Phase 0 = 10.5098040104
INFO: Time to ContDelay sleep  -- ContDelay 39.4901461601 : Start at -- 10:09:36 finish at 10:10:15

INFO: testlistlen=41 testTempPoint=False tcTemp=24.7 setpointTemp=25.0 contTime=1800 endTime-time=1249.40797687 siggenpwrlevel=17.0
INFO: Using phase 0 and siggenpwrlevel 17.0 DBM -- TX test.
INFO: Time to do setUVPhase 3.76187300682
INFO: Time to getDacqData 0.603074073792
Measure Phase -- Ch1to2 Phase raw -1.2665E+02 Phase 233.35
Measure Phase -- Ch1to3 Phase raw -4.679E+01 Phase 313.21
Measure Phase -- Ch1to4 Phase raw -9.166E+01 Phase 268.34
INFO: Time to getOSCPhase 3.10915112495
INFO: Time to getUVPTemps 2.37983894348
INFO: Time to complete logcount 0 = 6.32466316223
INFO: Time to complete Phase 0 = 10.551281929
INFO: Time to ContDelay sleep  -- ContDelay 39.4486711025 : Start at -- 10:10:26 finish at 10:11:05

INFO: testlistlen=41 testTempPoint=False tcTemp=24.6 setpointTemp=25.0 contTime=1800 endTime-time=1199.36799002 siggenpwrlevel=17.0
INFO: Using phase 0 and siggenpwrlevel 17.0 DBM -- TX test.
INFO: Time to do setUVPhase 3.7942199707
INFO: Time to getDacqData 0.592901945114
Measure Phase -- Ch1to2 Phase raw -1.3251E+02 Phase 227.49
Measure Phase -- Ch1to3 Phase raw -4.953E+01 Phase 310.47
Measure Phase -- Ch1to4 Phase raw -9.817E+01 Phase 261.83
INFO: Time to getOSCPhase 3.11904096603
INFO: Time to getUVPTemps 2.37564587593
INFO: Time to complete logcount 0 = 6.3227159977
INFO: Time to complete Phase 0 = 10.587692976
INFO: Time to ContDelay sleep  -- ContDelay 39.4122519493 : Start at -- 10:11:16 finish at 10:11:55

INFO: testlistlen=41 testTempPoint=False tcTemp=24.8 setpointTemp=25.0 contTime=1800 endTime-time=1149.32791805 siggenpwrlevel=17.0
INFO: Using phase 0 and siggenpwrlevel 17.0 DBM -- TX test.
INFO: Time to do setUVPhase 3.74635601044
INFO: Time to getDacqData 0.572381973267
Measure Phase -- Ch1to2 Phase raw -1.3086E+02 Phase 229.14
Measure Phase -- Ch1to3 Phase raw -4.776E+01 Phase 312.24
Measure Phase -- Ch1to4 Phase raw -9.897E+01 Phase 261.03
INFO: Time to getOSCPhase 3.1191110611
INFO: Time to getUVPTemps 2.37548208237
INFO: Time to complete logcount 0 = 6.30168795586
INFO: Time to complete Phase 0 = 10.5222799778
INFO: Time to ContDelay sleep  -- ContDelay 39.4776711464 : Start at -- 10:12:06 finish at 10:12:45

INFO: testlistlen=41 testTempPoint=False tcTemp=24.7 setpointTemp=25.0 contTime=1800 endTime-time=1099.29284692 siggenpwrlevel=17.0
INFO: Using phase 0 and siggenpwrlevel 17.0 DBM -- TX test.
INFO: Time to do setUVPhase 3.7663269043
INFO: Time to getDacqData 0.587438821793
Measure Phase -- Ch1to2 Phase raw -1.4268E+02 Phase 217.32
Measure Phase -- Ch1to3 Phase raw -4.949E+01 Phase 310.51
Measure Phase -- Ch1to4 Phase raw -9.911E+01 Phase 260.89
INFO: Time to getOSCPhase 3.11032605171
INFO: Time to getUVPTemps 2.37520503998
INFO: Time to complete logcount 0 = 6.30746006966
INFO: Time to complete Phase 0 = 10.5422809124
INFO: Time to ContDelay sleep  -- ContDelay 39.4576630592 : Start at -- 10:12:56 finish at 10:13:35

INFO: testlistlen=41 testTempPoint=False tcTemp=24.8 setpointTemp=25.0 contTime=1800 endTime-time=1049.25289202 siggenpwrlevel=17.0
INFO: Using phase 0 and siggenpwrlevel 17.0 DBM -- TX test.
INFO: Time to do setUVPhase 3.75431489944
INFO: Time to getDacqData 0.532671928406
Measure Phase -- Ch1to2 Phase raw -1.3658E+02 Phase 223.42
Measure Phase -- Ch1to3 Phase raw -4.836E+01 Phase 311.64
Measure Phase -- Ch1to4 Phase raw -9.438E+01 Phase 265.62
INFO: Time to getOSCPhase 3.11912918091
INFO: Time to getUVPTemps 2.37490296364
INFO: Time to complete logcount 0 = 6.26188588142
INFO: Time to complete Phase 0 = 10.480684042
INFO: Time to ContDelay sleep  -- ContDelay 39.519258976 : Start at -- 10:13:46 finish at 10:14:25

INFO: testlistlen=41 testTempPoint=False tcTemp=24.7 setpointTemp=25.0 contTime=1800 endTime-time=999.216022015 siggenpwrlevel=17.0
INFO: Using phase 0 and siggenpwrlevel 17.0 DBM -- TX test.
INFO: Time to do setUVPhase 3.77993988991
INFO: Time to getDacqData 0.541757106781
Measure Phase -- Ch1to2 Phase raw -1.3454E+02 Phase 225.46
Measure Phase -- Ch1to3 Phase raw -4.849E+01 Phase 311.51
Measure Phase -- Ch1to4 Phase raw -9.298E+01 Phase 267.02
INFO: Time to getOSCPhase 3.11945986748
INFO: Time to getUVPTemps 2.3752849102
INFO: Time to complete logcount 0 = 6.26924085617
INFO: Time to complete Phase 0 = 10.5133509636
INFO: Time to ContDelay sleep  -- ContDelay 39.4865989685 : Start at -- 10:14:36 finish at 10:15:15

INFO: testlistlen=41 testTempPoint=False tcTemp=24.7 setpointTemp=25.0 contTime=1800 endTime-time=949.17590189 siggenpwrlevel=17.0
INFO: Using phase 0 and siggenpwrlevel 17.0 DBM -- TX test.
INFO: Time to do setUVPhase 3.75772285461
INFO: Time to getDacqData 0.586272001266
Measure Phase -- Ch1to2 Phase raw -1.3295E+02 Phase 227.05
Measure Phase -- Ch1to3 Phase raw -4.731E+01 Phase 312.69
Measure Phase -- Ch1to4 Phase raw -9.756E+01 Phase 262.44
INFO: Time to getOSCPhase 3.10849905014
INFO: Time to getUVPTemps 2.37891292572
INFO: Time to complete logcount 0 = 6.308177948
INFO: Time to complete Phase 0 = 10.5369958878
INFO: Time to ContDelay sleep  -- ContDelay 39.4629452229 : Start at -- 10:15:26 finish at 10:16:05

INFO: testlistlen=41 testTempPoint=False tcTemp=24.8 setpointTemp=25.0 contTime=1800 endTime-time=899.135742903 siggenpwrlevel=17.0
INFO: Using phase 0 and siggenpwrlevel 17.0 DBM -- TX test.
INFO: Time to do setUVPhase 3.75730800629
INFO: Time to getDacqData 0.616527080536
Measure Phase -- Ch1to2 Phase raw -1.2940E+02 Phase 230.6
Measure Phase -- Ch1to3 Phase raw -4.682E+01 Phase 313.18
Measure Phase -- Ch1to4 Phase raw -9.135E+01 Phase 268.65
INFO: Time to getOSCPhase 3.11309599876
INFO: Time to getUVPTemps 2.38065910339
INFO: Time to complete logcount 0 = 6.34471297264
INFO: Time to complete Phase 0 = 10.5701861382
INFO: Time to ContDelay sleep  -- ContDelay 39.4297590256 : Start at -- 10:16:16 finish at 10:16:55

INFO: testlistlen=41 testTempPoint=False tcTemp=24.7 setpointTemp=25.0 contTime=1800 endTime-time=849.095752954 siggenpwrlevel=17.0
INFO: Using phase 0 and siggenpwrlevel 17.0 DBM -- TX test.
INFO: Time to do setUVPhase 3.77865004539
INFO: Time to getDacqData 0.627610206604
Measure Phase -- Ch1to2 Phase raw -1.2969E+02 Phase 230.31
Measure Phase -- Ch1to3 Phase raw -4.740E+01 Phase 312.6
Measure Phase -- Ch1to4 Phase raw -9.271E+01 Phase 267.29
INFO: Time to getOSCPhase 3.11288499832
INFO: Time to getUVPTemps 2.3757622242
INFO: Time to complete logcount 0 = 6.35155916214
INFO: Time to complete Phase 0 = 10.598870039
INFO: Time to ContDelay sleep  -- ContDelay 39.4010717869 : Start at -- 10:17:06 finish at 10:17:45

INFO: testlistlen=41 testTempPoint=False tcTemp=24.8 setpointTemp=25.0 contTime=1800 endTime-time=799.081023932 siggenpwrlevel=17.0
INFO: Using phase 0 and siggenpwrlevel 17.0 DBM -- TX test.
INFO: Time to do setUVPhase 3.7529489994
INFO: Time to getDacqData 0.615604162216
Measure Phase -- Ch1to2 Phase raw -1.3576E+02 Phase 224.24
Measure Phase -- Ch1to3 Phase raw -5.223E+01 Phase 307.77
Measure Phase -- Ch1to4 Phase raw -9.536E+01 Phase 264.64
INFO: Time to getOSCPhase 3.11315989494
INFO: Time to getUVPTemps 2.37431812286
INFO: Time to complete logcount 0 = 6.33768796921
INFO: Time to complete Phase 0 = 10.5537309647
INFO: Time to ContDelay sleep  -- ContDelay 39.4462189674 : Start at -- 10:17:56 finish at 10:18:35

INFO: testlistlen=41 testTempPoint=False tcTemp=24.8 setpointTemp=25.0 contTime=1800 endTime-time=749.066184044 siggenpwrlevel=17.0
INFO: Using phase 0 and siggenpwrlevel 17.0 DBM -- TX test.
INFO: Time to do setUVPhase 3.77719902992
INFO: Time to getDacqData 0.536541938782
Measure Phase -- Ch1to2 Phase raw -1.2941E+02 Phase 230.59
Measure Phase -- Ch1to3 Phase raw -4.805E+01 Phase 311.95
Measure Phase -- Ch1to4 Phase raw -1.0035E+02 Phase 259.65
INFO: Time to getOSCPhase 3.12971401215
INFO: Time to getUVPTemps 2.37820196152
INFO: Time to complete logcount 0 = 6.27874398232
INFO: Time to complete Phase 0 = 10.5257191658
INFO: Time to ContDelay sleep  -- ContDelay 39.474230051 : Start at -- 10:18:46 finish at 10:19:25

INFO: testlistlen=41 testTempPoint=False tcTemp=24.8 setpointTemp=25.0 contTime=1800 endTime-time=699.051198006 siggenpwrlevel=17.0
INFO: Using phase 0 and siggenpwrlevel 17.0 DBM -- TX test.
INFO: Time to do setUVPhase 3.76012802124
INFO: Time to getDacqData 0.610337972641
Measure Phase -- Ch1to2 Phase raw -1.3438E+02 Phase 225.62
Measure Phase -- Ch1to3 Phase raw -4.974E+01 Phase 310.26
Measure Phase -- Ch1to4 Phase raw -9.704E+01 Phase 262.96
INFO: Time to getOSCPhase 3.11252307892
INFO: Time to getUVPTemps 2.37501001358
INFO: Time to complete logcount 0 = 6.32982301712
INFO: Time to complete Phase 0 = 10.5615429878
INFO: Time to ContDelay sleep  -- ContDelay 39.438398838 : Start at -- 10:19:36 finish at 10:20:16

INFO: testlistlen=41 testTempPoint=False tcTemp=24.8 setpointTemp=25.0 contTime=1800 endTime-time=649.036104918 siggenpwrlevel=17.0
INFO: Using phase 0 and siggenpwrlevel 17.0 DBM -- TX test.
INFO: Time to do setUVPhase 3.75797581673
INFO: Time to getDacqData 0.566915988922
Measure Phase -- Ch1to2 Phase raw -1.3341E+02 Phase 226.59
Measure Phase -- Ch1to3 Phase raw -4.816E+01 Phase 311.84
Measure Phase -- Ch1to4 Phase raw -9.601E+01 Phase 263.99
INFO: Time to getOSCPhase 3.12184596062
INFO: Time to getUVPTemps 2.3746099472
INFO: Time to complete logcount 0 = 6.29557800293
INFO: Time to complete Phase 0 = 15.5280330181
INFO: Time to ContDelay sleep  -- ContDelay 34.4719049931 : Start at -- 10:20:31 finish at 10:21:06

INFO: testlistlen=41 testTempPoint=False tcTemp=24.8 setpointTemp=25.0 contTime=1800 endTime-time=599.034153938 siggenpwrlevel=17.0
INFO: Using phase 0 and siggenpwrlevel 17.0 DBM -- TX test.
INFO: Time to do setUVPhase 3.7716178894
INFO: Time to getDacqData 0.621819972992
Measure Phase -- Ch1to2 Phase raw -1.3089E+02 Phase 229.11
Measure Phase -- Ch1to3 Phase raw -4.443E+01 Phase 315.57
Measure Phase -- Ch1to4 Phase raw -9.479E+01 Phase 265.21
INFO: Time to getOSCPhase 3.12260699272
INFO: Time to getUVPTemps 2.37494015694
INFO: Time to complete logcount 0 = 6.35086989403
INFO: Time to complete Phase 0 = 10.5925559998
INFO: Time to ContDelay sleep  -- ContDelay 39.4073879719 : Start at -- 10:21:16 finish at 10:21:56

INFO: testlistlen=41 testTempPoint=False tcTemp=24.8 setpointTemp=25.0 contTime=1800 endTime-time=548.99344492 siggenpwrlevel=17.0
INFO: Using phase 0 and siggenpwrlevel 17.0 DBM -- TX test.
INFO: Time to do setUVPhase 3.75441002846
INFO: Time to getDacqData 0.568821907043
Measure Phase -- Ch1to2 Phase raw -1.3667E+02 Phase 223.33
Measure Phase -- Ch1to3 Phase raw -4.786E+01 Phase 312.14
Measure Phase -- Ch1to4 Phase raw -9.087E+01 Phase 269.13
INFO: Time to getOSCPhase 3.12144708633
INFO: Time to getUVPTemps 2.33143520355
INFO: Time to complete logcount 0 = 6.25642800331
INFO: Time to complete Phase 0 = 10.4781808853
INFO: Time to ContDelay sleep  -- ContDelay 39.5217821598 : Start at -- 10:22:06 finish at 10:22:46

INFO: testlistlen=41 testTempPoint=False tcTemp=24.8 setpointTemp=25.0 contTime=1800 endTime-time=498.95362401 siggenpwrlevel=17.0
INFO: Using phase 0 and siggenpwrlevel 17.0 DBM -- TX test.
INFO: Time to do setUVPhase 3.75877094269
INFO: Time to getDacqData 0.591057062149
Measure Phase -- Ch1to2 Phase raw -1.3436E+02 Phase 225.64
Measure Phase -- Ch1to3 Phase raw -4.261E+01 Phase 317.39
Measure Phase -- Ch1to4 Phase raw -9.380E+01 Phase 266.2
INFO: Time to getOSCPhase 3.11364197731
INFO: Time to getUVPTemps 2.37700104713
INFO: Time to complete logcount 0 = 6.31622099876
INFO: Time to complete Phase 0 = 10.5445168018
INFO: Time to ContDelay sleep  -- ContDelay 39.4554321766 : Start at -- 10:22:56 finish at 10:23:36

INFO: testlistlen=41 testTempPoint=False tcTemp=24.8 setpointTemp=25.0 contTime=1800 endTime-time=448.913797855 siggenpwrlevel=17.0
INFO: Using phase 0 and siggenpwrlevel 17.0 DBM -- TX test.
INFO: Time to do setUVPhase 3.75624084473
INFO: Time to getDacqData 0.62290096283
Measure Phase -- Ch1to2 Phase raw -1.3436E+02 Phase 225.64
Measure Phase -- Ch1to3 Phase raw -5.054E+01 Phase 309.46
Measure Phase -- Ch1to4 Phase raw -1.0425E+02 Phase 255.75
INFO: Time to getOSCPhase 3.12674593925
INFO: Time to getUVPTemps 2.37685799599
INFO: Time to complete logcount 0 = 6.361109972
INFO: Time to complete Phase 0 = 10.5882768631
INFO: Time to ContDelay sleep  -- ContDelay 39.4116771221 : Start at -- 10:23:46 finish at 10:24:26

INFO: testlistlen=41 testTempPoint=False tcTemp=24.9 setpointTemp=25.0 contTime=1800 endTime-time=398.874016047 siggenpwrlevel=17.0
INFO: Using phase 0 and siggenpwrlevel 17.0 DBM -- TX test.
INFO: Time to do setUVPhase 3.76219201088
INFO: Time to getDacqData 0.552665948868
Measure Phase -- Ch1to2 Phase raw -1.3473E+02 Phase 225.27
Measure Phase -- Ch1to3 Phase raw -4.937E+01 Phase 310.63
Measure Phase -- Ch1to4 Phase raw -9.735E+01 Phase 262.65
INFO: Time to getOSCPhase 3.11312699318
INFO: Time to getUVPTemps 2.37564992905
INFO: Time to complete logcount 0 = 6.27665400505
INFO: Time to complete Phase 0 = 10.5039651394
INFO: Time to ContDelay sleep  -- ContDelay 39.4959869385 : Start at -- 10:24:36 finish at 10:25:16

INFO: testlistlen=41 testTempPoint=False tcTemp=24.9 setpointTemp=25.0 contTime=1800 endTime-time=348.849339008 siggenpwrlevel=17.0
INFO: Using phase 0 and siggenpwrlevel 17.0 DBM -- TX test.
INFO: Time to do setUVPhase 3.75691485405
INFO: Time to getDacqData 0.604981899261
Measure Phase -- Ch1to2 Phase raw -1.2898E+02 Phase 231.02
Measure Phase -- Ch1to3 Phase raw -5.084E+01 Phase 309.16
Measure Phase -- Ch1to4 Phase raw -9.061E+01 Phase 269.39
INFO: Time to getOSCPhase 3.11348700523
INFO: Time to getUVPTemps 2.37438106537
INFO: Time to complete logcount 0 = 6.32507610321
INFO: Time to complete Phase 0 = 10.5604329109
INFO: Time to ContDelay sleep  -- ContDelay 39.4395091534 : Start at -- 10:25:26 finish at 10:26:06

INFO: testlistlen=41 testTempPoint=False tcTemp=24.9 setpointTemp=25.0 contTime=1800 endTime-time=298.842213869 siggenpwrlevel=17.0
INFO: Using phase 0 and siggenpwrlevel 17.0 DBM -- TX test.
INFO: Time to do setUVPhase 3.75468301773
INFO: Time to getDacqData 0.569782018661
Measure Phase -- Ch1to2 Phase raw -1.3325E+02 Phase 226.75
Measure Phase -- Ch1to3 Phase raw -4.659E+01 Phase 313.41
Measure Phase -- Ch1to4 Phase raw -1.0347E+02 Phase 256.53
INFO: Time to getOSCPhase 3.1136469841
INFO: Time to getUVPTemps 2.37763595581
INFO: Time to complete logcount 0 = 6.29261803627
INFO: Time to complete Phase 0 = 10.5139610767
INFO: Time to ContDelay sleep  -- ContDelay 39.485989809 : Start at -- 10:26:16 finish at 10:26:56

INFO: testlistlen=41 testTempPoint=False tcTemp=24.9 setpointTemp=25.0 contTime=1800 endTime-time=248.806660891 siggenpwrlevel=17.0
INFO: Using phase 0 and siggenpwrlevel 17.0 DBM -- TX test.
INFO: Time to do setUVPhase 3.76044917107
INFO: Time to getDacqData 0.593228816986
Measure Phase -- Ch1to2 Phase raw -1.2758E+02 Phase 232.42
Measure Phase -- Ch1to3 Phase raw -4.545E+01 Phase 314.55
Measure Phase -- Ch1to4 Phase raw -9.183E+01 Phase 268.17
INFO: Time to getOSCPhase 3.11591601372
INFO: Time to getUVPTemps 2.37768912315
INFO: Time to complete logcount 0 = 6.32235097885
INFO: Time to complete Phase 0 = 10.5509240627
INFO: Time to ContDelay sleep  -- ContDelay 39.4490199089 : Start at -- 10:27:06 finish at 10:27:46

INFO: testlistlen=41 testTempPoint=False tcTemp=24.8 setpointTemp=25.0 contTime=1800 endTime-time=198.766882896 siggenpwrlevel=17.0
INFO: Using phase 0 and siggenpwrlevel 17.0 DBM -- TX test.
INFO: Time to do setUVPhase 3.75732302666
INFO: Time to getDacqData 0.626915931702
Measure Phase -- Ch1to2 Phase raw -1.3439E+02 Phase 225.61
Measure Phase -- Ch1to3 Phase raw -4.874E+01 Phase 311.26
Measure Phase -- Ch1to4 Phase raw -9.743E+01 Phase 262.57
INFO: Time to getOSCPhase 3.10964179039
INFO: Time to getUVPTemps 2.37559199333
INFO: Time to complete logcount 0 = 6.3467168808
INFO: Time to complete Phase 0 = 10.5726680756
INFO: Time to ContDelay sleep  -- ContDelay 39.4272768497 : Start at -- 10:27:56 finish at 10:28:36

INFO: testlistlen=41 testTempPoint=False tcTemp=24.9 setpointTemp=25.0 contTime=1800 endTime-time=148.728029966 siggenpwrlevel=17.0
INFO: Using phase 0 and siggenpwrlevel 17.0 DBM -- TX test.
INFO: Time to do setUVPhase 3.7586388588
INFO: Time to getDacqData 0.561261892319
Measure Phase -- Ch1to2 Phase raw -1.2569E+02 Phase 234.31
Measure Phase -- Ch1to3 Phase raw -4.367E+01 Phase 316.33
Measure Phase -- Ch1to4 Phase raw -9.443E+01 Phase 265.57
INFO: Time to getOSCPhase 3.11096286774
INFO: Time to getUVPTemps 2.37540006638
INFO: Time to complete logcount 0 = 6.27956795692
INFO: Time to complete Phase 0 = 10.5035820007
INFO: Time to ContDelay sleep  -- ContDelay 39.4963581562 : Start at -- 10:28:46 finish at 10:29:26

INFO: testlistlen=41 testTempPoint=False tcTemp=25.0 setpointTemp=25.0 contTime=1800 endTime-time=98.7037398815 siggenpwrlevel=17.0
INFO: Using phase 0 and siggenpwrlevel 17.0 DBM -- TX test.
INFO: Time to do setUVPhase 3.75378990173
INFO: Time to getDacqData 0.610194921494
Measure Phase -- Ch1to2 Phase raw -1.3476E+02 Phase 225.24
Measure Phase -- Ch1to3 Phase raw -4.868E+01 Phase 311.32
Measure Phase -- Ch1to4 Phase raw -9.674E+01 Phase 263.26
INFO: Time to getOSCPhase 3.11337900162
INFO: Time to getUVPTemps 2.37536215782
INFO: Time to complete logcount 0 = 6.33085107803
INFO: Time to complete Phase 0 = 10.5515358448
INFO: Time to ContDelay sleep  -- ContDelay 39.4484131336 : Start at -- 10:29:36 finish at 10:30:16

INFO: testlistlen=41 testTempPoint=False tcTemp=24.9 setpointTemp=25.0 contTime=1800 endTime-time=48.6637890339 siggenpwrlevel=17.0
INFO: Using phase 0 and siggenpwrlevel 17.0 DBM -- TX test.
INFO: Time to do setUVPhase 3.7636859417
INFO: Time to getDacqData 0.5324010849
Measure Phase -- Ch1to2 Phase raw -1.3009E+02 Phase 229.91
Measure Phase -- Ch1to3 Phase raw -4.527E+01 Phase 314.73
Measure Phase -- Ch1to4 Phase raw -9.434E+01 Phase 265.66
INFO: Time to getOSCPhase 3.11653780937
INFO: Time to getUVPTemps 2.37465715408
INFO: Time to complete logcount 0 = 6.25800895691
INFO: Time to complete Phase 0 = 10.4856791496
INFO: Time to ContDelay sleep  -- ContDelay 39.5142660141 : Start at -- 10:30:26 finish at 10:31:06

INFO: testlistlen=41 testTempPoint=False tcTemp=24.9 setpointTemp=25.0 contTime=1800 endTime-time=-1.34286308289 siggenpwrlevel=17.0
INFO: Temperature resting at 25.0 time reached -- 10:31:06

INFO: testTempPoint=False contTime=-1 setpoint=25.0 count=1.0 phaseToUse=[0.0, 3.0, 6.0, 9.0, 12.0, 15.0, 18.0, 21.0, 24.0, 27.0, 30.0, 33.0, 36.0, 39.0, 42.0, 45.0, 48.0, 51.0, 54.0, 57.0, 60.0, 63.0, 66.0, 69.0, 72.0, 75.0, 78.0, 81.0, 84.0, 87.0, 90.0, 93.0, 96.0, 99.0, 102.0, 105.0, 108.0, 111.0, 114.0, 117.0, 120.0, 123.0, 126.0, 129.0, 132.0, 135.0, 138.0, 141.0, 144.0, 147.0, 150.0, 153.0, 156.0, 159.0, 162.0, 165.0, 168.0, 171.0, 174.0, 177.0, 180.0, 183.0, 186.0, 189.0, 192.0, 195.0, 198.0, 201.0, 204.0, 207.0, 210.0, 213.0, 216.0, 219.0, 222.0, 225.0, 228.0, 231.0, 234.0, 237.0, 240.0, 243.0, 246.0, 249.0, 252.0, 255.0, 258.0, 261.0, 264.0, 267.0, 270.0, 273.0, 276.0, 279.0, 282.0, 285.0, 288.0, 291.0, 294.0, 297.0, 300.0, 303.0, 306.0, 309.0, 312.0, 315.0, 318.0, 321.0, 324.0, 327.0, 330.0, 333.0, 336.0, 339.0, 342.0, 345.0, 348.0, 351.0, 354.0, 357.0] checkTol=1.0 beginTime=1579890666.44 endtime=1579890665.44 10:31:05 siggenlevel=17.0 initial heatcool=68.09
INFO: Temperature resting at Set point 25.0 for -1 secs : Start at -- 10:31:06 finish at 10:31:05

INFO: Using phase 0.0 and siggenpwrlevel 17.0 DBM -- TX test.
INFO: Time to do setUVPhase 3.75031614304
INFO: Time to getDacqData 0.616378068924
Measure Phase -- Ch1to2 Phase raw -1.3091E+02 Phase 229.09
Measure Phase -- Ch1to3 Phase raw -4.082E+01 Phase 319.18
Measure Phase -- Ch1to4 Phase raw -9.286E+01 Phase 267.14
INFO: Time to getOSCPhase 3.11974191666
INFO: Time to getUVPTemps 2.37534713745
INFO: Time to complete logcount 0 = 6.34539699554
INFO: Time to complete Phase 0.0 = 10.5624549389
INFO: Using phase 3.0 and siggenpwrlevel 17.0 DBM -- TX test.
INFO: Time to do setUVPhase 4.29218411446
INFO: Time to getDacqData 0.536195039749
Measure Phase -- Ch1to2 Phase raw -1.2859E+02 Phase 231.41
Measure Phase -- Ch1to3 Phase raw -4.404E+01 Phase 315.96
Measure Phase -- Ch1to4 Phase raw -9.481E+01 Phase 265.19
INFO: Time to getOSCPhase 3.10774493217
INFO: Time to getUVPTemps 2.37541699409
INFO: Time to complete logcount 0 = 6.25357198715
INFO: Time to complete Phase 3.0 = 11.0121171474
INFO: Using phase 6.0 and siggenpwrlevel 17.0 DBM -- TX test.
INFO: Time to do setUVPhase 4.31867814064
INFO: Time to getDacqData 0.622464179993
Measure Phase -- Ch1to2 Phase raw -1.1992E+02 Phase 240.08
Measure Phase -- Ch1to3 Phase raw -3.638E+01 Phase 323.62
Measure Phase -- Ch1to4 Phase raw -8.134E+01 Phase 278.66
INFO: Time to getOSCPhase 3.12558794022
INFO: Time to getUVPTemps 2.37482309341
INFO: Time to complete logcount 0 = 6.35817813873
INFO: Time to complete Phase 6.0 = 11.14447999
INFO: Using phase 9.0 and siggenpwrlevel 17.0 DBM -- TX test.
INFO: Time to do setUVPhase 4.27892804146
INFO: Time to getDacqData 0.541623830795
Measure Phase -- Ch1to2 Phase raw -1.2467E+02 Phase 235.33
Measure Phase -- Ch1to3 Phase raw -3.605E+01 Phase 323.95
Measure Phase -- Ch1to4 Phase raw -8.221E+01 Phase 277.79
INFO: Time to getOSCPhase 3.13148784637
INFO: Time to getUVPTemps 2.37565898895
INFO: Time to complete logcount 0 = 6.28072690964
INFO: Time to complete Phase 9.0 = 11.0302920341
INFO: Using phase 12.0 and siggenpwrlevel 17.0 DBM -- TX test.
INFO: Time to do setUVPhase 4.29558420181
INFO: Time to getDacqData 0.620635032654
Measure Phase -- Ch1to2 Phase raw -1.1743E+02 Phase 242.57
Measure Phase -- Ch1to3 Phase raw -4.076E+01 Phase 319.24
Measure Phase -- Ch1to4 Phase raw -8.400E+01 Phase 276.0
INFO: Time to getOSCPhase 3.10030698776
INFO: Time to getUVPTemps 2.37552499771
INFO: Time to complete logcount 0 = 6.33188700676
INFO: Time to complete Phase 12.0 = 11.0966200829
INFO: Using phase 15.0 and siggenpwrlevel 17.0 DBM -- TX test.
INFO: Time to do setUVPhase 4.30382609367
INFO: Time to getDacqData 0.539910078049
Measure Phase -- Ch1to2 Phase raw -1.1693E+02 Phase 243.07
Measure Phase -- Ch1to3 Phase raw -3.354E+01 Phase 326.46
Measure Phase -- Ch1to4 Phase raw -7.753E+01 Phase 282.47
INFO: Time to getOSCPhase 3.11367583275
INFO: Time to getUVPTemps 2.38169193268
INFO: Time to complete logcount 0 = 6.27197384834
INFO: Time to complete Phase 15.0 = 11.0454699993
INFO: Using phase 18.0 and siggenpwrlevel 17.0 DBM -- TX test.
INFO: Time to do setUVPhase 4.27845788002
INFO: Time to getDacqData 0.552187204361
Measure Phase -- Ch1to2 Phase raw -1.1264E+02 Phase 247.36
Measure Phase -- Ch1to3 Phase raw -3.043E+01 Phase 329.57
Measure Phase -- Ch1to4 Phase raw -7.238E+01 Phase 287.62
INFO: Time to getOSCPhase 3.10849189758
INFO: Time to getUVPTemps 2.37550497055
INFO: Time to complete logcount 0 = 6.26863312721
INFO: Time to complete Phase 18.0 = 11.0128479004
INFO: Using phase 21.0 and siggenpwrlevel 17.0 DBM -- TX test.
INFO: Time to do setUVPhase 4.32023692131
INFO: Time to getDacqData 0.623929023743
Measure Phase -- Ch1to2 Phase raw -1.0851E+02 Phase 251.49
Measure Phase -- Ch1to3 Phase raw -2.790E+01 Phase 332.1
Measure Phase -- Ch1to4 Phase raw -7.123E+01 Phase 288.77
INFO: Time to getOSCPhase 3.12021207809
INFO: Time to getUVPTemps 2.3754529953
INFO: Time to complete logcount 0 = 6.35435509682
INFO: Time to complete Phase 21.0 = 11.1391689777
INFO: Using phase 24.0 and siggenpwrlevel 17.0 DBM -- TX test.
INFO: Time to do setUVPhase 4.27008700371
INFO: Time to getDacqData 0.552857875824
Measure Phase -- Ch1to2 Phase raw -1.1122E+02 Phase 248.78
Measure Phase -- Ch1to3 Phase raw -2.374E+01 Phase 336.26
Measure Phase -- Ch1to4 Phase raw -6.867E+01 Phase 291.33
INFO: Time to getOSCPhase 3.1414899826
INFO: Time to getUVPTemps 2.37613511086
INFO: Time to complete logcount 0 = 6.30651807785
INFO: Time to complete Phase 24.0 = 11.0478210449
INFO: Using phase 27.0 and siggenpwrlevel 17.0 DBM -- TX test.
INFO: Time to do setUVPhase 4.31860804558
INFO: Time to getDacqData 0.589658975601
Measure Phase -- Ch1to2 Phase raw -1.0456E+02 Phase 255.44
Measure Phase -- Ch1to3 Phase raw -2.111E+01 Phase 338.89
Measure Phase -- Ch1to4 Phase raw -6.500E+01 Phase 295.0
INFO: Time to getOSCPhase 3.11346483231
INFO: Time to getUVPTemps 2.37634110451
INFO: Time to complete logcount 0 = 6.31168794632
INFO: Time to complete Phase 27.0 = 11.1058239937
INFO: Using phase 30.0 and siggenpwrlevel 17.0 DBM -- TX test.
INFO: Time to do setUVPhase 4.27111315727
INFO: Time to getDacqData 0.559414863586
Measure Phase -- Ch1to2 Phase raw -1.0262E+02 Phase 257.38
Measure Phase -- Ch1to3 Phase raw -2.146E+01 Phase 338.54
Measure Phase -- Ch1to4 Phase raw -6.845E+01 Phase 291.55
INFO: Time to getOSCPhase 3.10399198532
INFO: Time to getUVPTemps 2.37542700768
INFO: Time to complete logcount 0 = 6.27075505257
INFO: Time to complete Phase 30.0 = 11.0060181618
INFO: Using phase 33.0 and siggenpwrlevel 17.0 DBM -- TX test.
INFO: Time to do setUVPhase 4.30058193207
INFO: Time to getDacqData 0.545731067657
Measure Phase -- Ch1to2 Phase raw -1.0400E+02 Phase 256.0
Measure Phase -- Ch1to3 Phase raw -1.777E+01 Phase 342.23
Measure Phase -- Ch1to4 Phase raw -5.902E+01 Phase 300.98
INFO: Time to getOSCPhase 3.10233592987
INFO: Time to getUVPTemps 2.33683085442
INFO: Time to complete logcount 0 = 6.2167930603
INFO: Time to complete Phase 33.0 = 10.9869351387
INFO: Using phase 36.0 and siggenpwrlevel 17.0 DBM -- TX test.
INFO: Time to do setUVPhase 4.32874512672
INFO: Time to getDacqData 0.559069871902
Measure Phase -- Ch1to2 Phase raw -9.509E+01 Phase 264.91
Measure Phase -- Ch1to3 Phase raw -1.204E+01 Phase 347.96
Measure Phase -- Ch1to4 Phase raw -5.626E+01 Phase 303.74
INFO: Time to getOSCPhase 3.11936306953
INFO: Time to getUVPTemps 2.37583899498
INFO: Time to complete logcount 0 = 6.28696203232
INFO: Time to complete Phase 36.0 = 11.0834441185
INFO: Using phase 39.0 and siggenpwrlevel 17.0 DBM -- TX test.
INFO: Time to do setUVPhase 4.29853320122
INFO: Time to getDacqData 0.630494832993
Measure Phase -- Ch1to2 Phase raw -9.388E+01 Phase 266.12
Measure Phase -- Ch1to3 Phase raw -1.155E+01 Phase 348.45
Measure Phase -- Ch1to4 Phase raw -5.109E+01 Phase 308.91
INFO: Time to getOSCPhase 3.12088108063
INFO: Time to getUVPTemps 2.3753490448
INFO: Time to complete logcount 0 = 6.3620390892
INFO: Time to complete Phase 39.0 = 11.1281850338
INFO: Using phase 42.0 and siggenpwrlevel 17.0 DBM -- TX test.
INFO: Time to do setUVPhase 4.30091786385
INFO: Time to getDacqData 0.626331090927
Measure Phase -- Ch1to2 Phase raw -9.358E+01 Phase 266.42
Measure Phase -- Ch1to3 Phase raw -3.09E+00 Phase 356.91
Measure Phase -- Ch1to4 Phase raw -5.392E+01 Phase 306.08
INFO: Time to getOSCPhase 3.1193959713
INFO: Time to getUVPTemps 2.374325037
INFO: Time to complete logcount 0 = 6.35448098183
INFO: Time to complete Phase 42.0 = 11.1223077774
INFO: Using phase 45.0 and siggenpwrlevel 17.0 DBM -- TX test.
INFO: Time to do setUVPhase 4.33410000801
INFO: Time to getDacqData 0.59538602829
Measure Phase -- Ch1to2 Phase raw -8.789E+01 Phase 272.11
Measure Phase -- Ch1to3 Phase raw 3.49E+00 Phase 3.49
Measure Phase -- Ch1to4 Phase raw -4.758E+01 Phase 312.42
INFO: Time to getOSCPhase 3.10933208466
INFO: Time to getUVPTemps 2.37908792496
INFO: Time to complete logcount 0 = 6.31668996811
INFO: Time to complete Phase 45.0 = 11.1221489906
INFO: Using phase 48.0 and siggenpwrlevel 17.0 DBM -- TX test.
INFO: Time to do setUVPhase 4.29665493965
INFO: Time to getDacqData 0.537200927734
Measure Phase -- Ch1to2 Phase raw -8.291E+01 Phase 277.09
Measure Phase -- Ch1to3 Phase raw 8.98E+00 Phase 8.98
Measure Phase -- Ch1to4 Phase raw -3.810E+01 Phase 321.9
INFO: Time to getOSCPhase 3.1100358963
INFO: Time to getUVPTemps 2.33229804039
INFO: Time to complete logcount 0 = 6.21252202988
INFO: Time to complete Phase 48.0 = 10.980396986
INFO: Using phase 51.0 and siggenpwrlevel 17.0 DBM -- TX test.
INFO: Time to do setUVPhase 4.36522603035
INFO: Time to getDacqData 0.611871957779
Measure Phase -- Ch1to2 Phase raw -8.285E+01 Phase 277.15
Measure Phase -- Ch1to3 Phase raw 8.07E+00 Phase 8.07
Measure Phase -- Ch1to4 Phase raw -3.615E+01 Phase 323.85
INFO: Time to getOSCPhase 3.10873508453
INFO: Time to getUVPTemps 2.37838792801
INFO: Time to complete logcount 0 = 6.33316087723
INFO: Time to complete Phase 51.0 = 11.1697919369
INFO: Using phase 54.0 and siggenpwrlevel 17.0 DBM -- TX test.
INFO: Time to do setUVPhase 4.28272914886
INFO: Time to getDacqData 0.552000045776
Measure Phase -- Ch1to2 Phase raw -8.507E+01 Phase 274.93
Measure Phase -- Ch1to3 Phase raw 1.194E+01 Phase 11.94
Measure Phase -- Ch1to4 Phase raw -4.151E+01 Phase 318.49
INFO: Time to getOSCPhase 3.10936689377
INFO: Time to getUVPTemps 2.37452793121
INFO: Time to complete logcount 0 = 6.27009391785
INFO: Time to complete Phase 54.0 = 11.0217411518
INFO: Using phase 57.0 and siggenpwrlevel 17.0 DBM -- TX test.
INFO: Time to do setUVPhase 4.28546500206
INFO: Time to getDacqData 0.554486036301
Measure Phase -- Ch1to2 Phase raw -7.623E+01 Phase 283.77
Measure Phase -- Ch1to3 Phase raw 1.675E+01 Phase 16.75
Measure Phase -- Ch1to4 Phase raw -4.030E+01 Phase 319.7
INFO: Time to getOSCPhase 3.10924601555
INFO: Time to getUVPTemps 2.37633895874
INFO: Time to complete logcount 0 = 6.27563881874
INFO: Time to complete Phase 57.0 = 11.0293290615
INFO: Using phase 60.0 and siggenpwrlevel 17.0 DBM -- TX test.
INFO: Time to do setUVPhase 4.32833695412
INFO: Time to getDacqData 0.612319946289
Measure Phase -- Ch1to2 Phase raw -8.307E+01 Phase 276.93
Measure Phase -- Ch1to3 Phase raw 1.814E+01 Phase 18.14
Measure Phase -- Ch1to4 Phase raw -3.553E+01 Phase 324.47
INFO: Time to getOSCPhase 3.11634707451
INFO: Time to getUVPTemps 2.37723779678
INFO: Time to complete logcount 0 = 6.33828496933
INFO: Time to complete Phase 60.0 = 11.1351001263
INFO: Using phase 63.0 and siggenpwrlevel 17.0 DBM -- TX test.
INFO: Time to do setUVPhase 4.34272098541
INFO: Time to getDacqData 0.588624954224
Measure Phase -- Ch1to2 Phase raw -7.605E+01 Phase 283.95
Measure Phase -- Ch1to3 Phase raw 2.243E+01 Phase 22.43
Measure Phase -- Ch1to4 Phase raw -3.367E+01 Phase 326.33
INFO: Time to getOSCPhase 3.12098097801
INFO: Time to getUVPTemps 2.37443709373
INFO: Time to complete logcount 0 = 6.31794691086
INFO: Time to complete Phase 63.0 = 11.1285209656
INFO: Using phase 66.0 and siggenpwrlevel 17.0 DBM -- TX test.
INFO: Time to do setUVPhase 4.30979013443
INFO: Time to getDacqData 0.617645978928
Measure Phase -- Ch1to2 Phase raw -6.981E+01 Phase 290.19
Measure Phase -- Ch1to3 Phase raw 2.562E+01 Phase 25.62
Measure Phase -- Ch1to4 Phase raw -3.160E+01 Phase 328.4
INFO: Time to getOSCPhase 3.1143591404
INFO: Time to getUVPTemps 2.37485313416
INFO: Time to complete logcount 0 = 6.34124183655
INFO: Time to complete Phase 66.0 = 11.1182191372
INFO: Using phase 69.0 and siggenpwrlevel 17.0 DBM -- TX test.
INFO: Time to do setUVPhase 4.2479569912
INFO: Time to getDacqData 0.58581495285
Measure Phase -- Ch1to2 Phase raw -6.831E+01 Phase 291.69
Measure Phase -- Ch1to3 Phase raw 2.608E+01 Phase 26.08
Measure Phase -- Ch1to4 Phase raw -2.937E+01 Phase 330.63
INFO: Time to getOSCPhase 3.11354112625
INFO: Time to getUVPTemps 2.37945914268
INFO: Time to complete logcount 0 = 6.31300592422
INFO: Time to complete Phase 69.0 = 11.0313279629
INFO: Using phase 72.0 and siggenpwrlevel 17.0 DBM -- TX test.
INFO: Time to do setUVPhase 4.28003191948
INFO: Time to getDacqData 0.550477027893
Measure Phase -- Ch1to2 Phase raw -7.398E+01 Phase 286.02
Measure Phase -- Ch1to3 Phase raw 3.003E+01 Phase 30.03
Measure Phase -- Ch1to4 Phase raw -2.491E+01 Phase 335.09
INFO: Time to getOSCPhase 3.12712979317
INFO: Time to getUVPTemps 2.37483811378
INFO: Time to complete logcount 0 = 6.28406310081
INFO: Time to complete Phase 72.0 = 11.0334498882
INFO: Using phase 75.0 and siggenpwrlevel 17.0 DBM -- TX test.
INFO: Time to do setUVPhase 4.30775499344
INFO: Time to getDacqData 0.612781047821
Measure Phase -- Ch1to2 Phase raw -5.652E+01 Phase 303.48
Measure Phase -- Ch1to3 Phase raw 3.366E+01 Phase 33.66
Measure Phase -- Ch1to4 Phase raw -2.050E+01 Phase 339.5
INFO: Time to getOSCPhase 3.09924292564
INFO: Time to getUVPTemps 2.37683296204
INFO: Time to complete logcount 0 = 6.32440209389
INFO: Time to complete Phase 75.0 = 11.4605498314
INFO: Using phase 78.0 and siggenpwrlevel 17.0 DBM -- TX test.
INFO: Time to do setUVPhase 4.02578282356
INFO: Time to getDacqData 0.88236618042
Measure Phase -- Ch1to2 Phase raw -6.065E+01 Phase 299.35
Measure Phase -- Ch1to3 Phase raw 3.914E+01 Phase 39.14
Measure Phase -- Ch1to4 Phase raw -1.315E+01 Phase 346.85
INFO: Time to getOSCPhase 3.12023186684
INFO: Time to getUVPTemps 2.37425804138
INFO: Time to complete logcount 0 = 6.60900783539
INFO: Time to complete Phase 78.0 = 11.1055059433
INFO: Using phase 81.0 and siggenpwrlevel 17.0 DBM -- TX test.
INFO: Time to do setUVPhase 4.30132889748
INFO: Time to getDacqData 0.609748125076
Measure Phase -- Ch1to2 Phase raw -6.598E+01 Phase 294.02
Measure Phase -- Ch1to3 Phase raw 3.548E+01 Phase 35.48
Measure Phase -- Ch1to4 Phase raw -1.583E+01 Phase 344.17
INFO: Time to getOSCPhase 3.10208010674
INFO: Time to getUVPTemps 2.37693595886
INFO: Time to complete logcount 0 = 6.32403087616
INFO: Time to complete Phase 81.0 = 11.0965378284
INFO: Using phase 84.0 and siggenpwrlevel 17.0 DBM -- TX test.
INFO: Time to do setUVPhase 4.29197621346
INFO: Time to getDacqData 0.552558898926
Measure Phase -- Ch1to2 Phase raw -4.867E+01 Phase 311.33
Measure Phase -- Ch1to3 Phase raw 4.730E+01 Phase 47.3
Measure Phase -- Ch1to4 Phase raw -1.096E+01 Phase 349.04
INFO: Time to getOSCPhase 3.11028695107
INFO: Time to getUVPTemps 2.37463998795
INFO: Time to complete logcount 0 = 6.27230095863
INFO: Time to complete Phase 84.0 = 11.0316040516
INFO: Using phase 87.0 and siggenpwrlevel 17.0 DBM -- TX test.
INFO: Time to do setUVPhase 4.29025816917
INFO: Time to getDacqData 0.551430940628
Measure Phase -- Ch1to2 Phase raw -4.575E+01 Phase 314.25
Measure Phase -- Ch1to3 Phase raw 4.869E+01 Phase 48.69
Measure Phase -- Ch1to4 Phase raw -6.23E+00 Phase 353.77
INFO: Time to getOSCPhase 3.10855293274
INFO: Time to getUVPTemps 2.37539815903
INFO: Time to complete logcount 0 = 6.26897382736
INFO: Time to complete Phase 87.0 = 11.0242381096
INFO: Using phase 90.0 and siggenpwrlevel 17.0 DBM -- TX test.
INFO: Time to do setUVPhase 4.31094503403
INFO: Time to getDacqData 0.629324913025
Measure Phase -- Ch1to2 Phase raw -3.930E+01 Phase 320.7
Measure Phase -- Ch1to3 Phase raw 5.118E+01 Phase 51.18
Measure Phase -- Ch1to4 Phase raw -5.83E+00 Phase 354.17
INFO: Time to getOSCPhase 3.12902116776
INFO: Time to getUVPTemps 2.37672710419
INFO: Time to complete logcount 0 = 6.37093091011
INFO: Time to complete Phase 90.0 = 11.1489691734
INFO: Using phase 93.0 and siggenpwrlevel 17.0 DBM -- TX test.
INFO: Time to do setUVPhase 4.29568099976
INFO: Time to getDacqData 0.62842297554
Measure Phase -- Ch1to2 Phase raw -4.643E+01 Phase 313.57
Measure Phase -- Ch1to3 Phase raw 4.852E+01 Phase 48.52
Measure Phase -- Ch1to4 Phase raw -2.89E+00 Phase 357.11
INFO: Time to getOSCPhase 3.10386705399
INFO: Time to getUVPTemps 2.41075205803
INFO: Time to complete logcount 0 = 6.37492203712
INFO: Time to complete Phase 93.0 = 11.1361031532
INFO: Using phase 96.0 and siggenpwrlevel 17.0 DBM -- TX test.
INFO: Time to do setUVPhase 4.29351401329
INFO: Time to getDacqData 0.617928028107
Measure Phase -- Ch1to2 Phase raw -3.286E+01 Phase 327.14
Measure Phase -- Ch1to3 Phase raw 5.379E+01 Phase 53.79
Measure Phase -- Ch1to4 Phase raw 7.63E+00 Phase 7.63
INFO: Time to getOSCPhase 3.10860395432
INFO: Time to getUVPTemps 2.33153510094
INFO: Time to complete logcount 0 = 6.28962182999
INFO: Time to complete Phase 96.0 = 11.054251194
INFO: Using phase 99.0 and siggenpwrlevel 17.0 DBM -- TX test.
INFO: Time to do setUVPhase 4.34722995758
INFO: Time to getDacqData 0.534912824631
Measure Phase -- Ch1to2 Phase raw -3.346E+01 Phase 326.54
Measure Phase -- Ch1to3 Phase raw 5.773E+01 Phase 57.73
Measure Phase -- Ch1to4 Phase raw 5.77E+00 Phase 5.77
INFO: Time to getOSCPhase 3.13001990318
INFO: Time to getUVPTemps 2.37520503998
INFO: Time to complete logcount 0 = 6.27503204346
INFO: Time to complete Phase 99.0 = 11.0894210339
INFO: Using phase 102.0 and siggenpwrlevel 17.0 DBM -- TX test.
INFO: Time to do setUVPhase 4.31810903549
INFO: Time to getDacqData 0.601454973221
Measure Phase -- Ch1to2 Phase raw -2.946E+01 Phase 330.54
Measure Phase -- Ch1to3 Phase raw 5.798E+01 Phase 57.98
Measure Phase -- Ch1to4 Phase raw 1.394E+01 Phase 13.94
INFO: Time to getOSCPhase 3.10956478119
INFO: Time to getUVPTemps 2.37776112556
INFO: Time to complete logcount 0 = 6.3234000206
INFO: Time to complete Phase 102.0 = 11.1088628769
INFO: Using phase 105.0 and siggenpwrlevel 17.0 DBM -- TX test.
INFO: Time to do setUVPhase 4.30076408386
INFO: Time to getDacqData 0.537888050079
Measure Phase -- Ch1to2 Phase raw -1.954E+01 Phase 340.46
Measure Phase -- Ch1to3 Phase raw 6.318E+01 Phase 63.18
Measure Phase -- Ch1to4 Phase raw 1.914E+01 Phase 19.14
INFO: Time to getOSCPhase 3.1097381115
INFO: Time to getUVPTemps 2.37997484207
INFO: Time to complete logcount 0 = 6.26300001144
INFO: Time to complete Phase 105.0 = 11.027616024
INFO: Using phase 108.0 and siggenpwrlevel 17.0 DBM -- TX test.
INFO: Time to do setUVPhase 4.31663298607
INFO: Time to getDacqData 0.619276046753
Measure Phase -- Ch1to2 Phase raw -1.714E+01 Phase 342.86
Measure Phase -- Ch1to3 Phase raw 6.811E+01 Phase 68.11
Measure Phase -- Ch1to4 Phase raw 2.253E+01 Phase 22.53
INFO: Time to getOSCPhase 3.10941290855
INFO: Time to getUVPTemps 2.37427210808
INFO: Time to complete logcount 0 = 6.33869600296
INFO: Time to complete Phase 108.0 = 11.1218488216
INFO: Using phase 111.0 and siggenpwrlevel 17.0 DBM -- TX test.
INFO: Time to do setUVPhase 4.29055690765
INFO: Time to getDacqData 0.547867059708
Measure Phase -- Ch1to2 Phase raw -1.607E+01 Phase 343.93
Measure Phase -- Ch1to3 Phase raw 6.244E+01 Phase 62.44
Measure Phase -- Ch1to4 Phase raw 1.835E+01 Phase 18.35
INFO: Time to getOSCPhase 3.1202070713
INFO: Time to getUVPTemps 2.32849502563
INFO: Time to complete logcount 0 = 6.2315030098
INFO: Time to complete Phase 111.0 = 10.9937849045
INFO: Using phase 114.0 and siggenpwrlevel 17.0 DBM -- TX test.
INFO: Time to do setUVPhase 4.33392691612
INFO: Time to getDacqData 0.538067102432
Measure Phase -- Ch1to2 Phase raw -4.97E+00 Phase 355.03
Measure Phase -- Ch1to3 Phase raw 6.845E+01 Phase 68.45
Measure Phase -- Ch1to4 Phase raw 2.788E+01 Phase 27.88
INFO: Time to getOSCPhase 3.10869193077
INFO: Time to getUVPTemps 2.41711091995
INFO: Time to complete logcount 0 = 6.29879713058
INFO: Time to complete Phase 114.0 = 11.1005499363
INFO: Using phase 117.0 and siggenpwrlevel 17.0 DBM -- TX test.
INFO: Time to do setUVPhase 4.30838990211
INFO: Time to getDacqData 0.593826055527
Measure Phase -- Ch1to2 Phase raw -8.25E+00 Phase 351.75
Measure Phase -- Ch1to3 Phase raw 7.152E+01 Phase 71.52
Measure Phase -- Ch1to4 Phase raw 2.798E+01 Phase 27.98
INFO: Time to getOSCPhase 3.11676120758
INFO: Time to getUVPTemps 2.38861107826
INFO: Time to complete logcount 0 = 6.33171486855
INFO: Time to complete Phase 117.0 = 11.1074500084
INFO: Using phase 120.0 and siggenpwrlevel 17.0 DBM -- TX test.
INFO: Time to do setUVPhase 4.35311985016
INFO: Time to getDacqData 0.572288990021
Measure Phase -- Ch1to2 Phase raw -5.56E+00 Phase 354.44
Measure Phase -- Ch1to3 Phase raw 7.395E+01 Phase 73.95
Measure Phase -- Ch1to4 Phase raw 3.342E+01 Phase 33.42
INFO: Time to getOSCPhase 3.12063407898
INFO: Time to getUVPTemps 2.37377405167
INFO: Time to complete logcount 0 = 6.29806399345
INFO: Time to complete Phase 120.0 = 11.1158628464
INFO: Using phase 123.0 and siggenpwrlevel 17.0 DBM -- TX test.
INFO: Time to do setUVPhase 4.29145503044
INFO: Time to getDacqData 0.537749052048
Measure Phase -- Ch1to2 Phase raw -5.47E+00 Phase 354.53
Measure Phase -- Ch1to3 Phase raw 8.145E+01 Phase 81.45
Measure Phase -- Ch1to4 Phase raw 3.884E+01 Phase 38.84
INFO: Time to getOSCPhase 3.10989189148
INFO: Time to getUVPTemps 2.37308096886
INFO: Time to complete logcount 0 = 6.25619411469
INFO: Time to complete Phase 123.0 = 11.0142860413
INFO: Using phase 126.0 and siggenpwrlevel 17.0 DBM -- TX test.
INFO: Time to do setUVPhase 4.29774594307
INFO: Time to getDacqData 0.540481090546
Measure Phase -- Ch1to2 Phase raw 1.33E+00 Phase 1.33
Measure Phase -- Ch1to3 Phase raw 7.812E+01 Phase 78.12
Measure Phase -- Ch1to4 Phase raw 3.432E+01 Phase 34.32
INFO: Time to getOSCPhase 3.11009097099
INFO: Time to getUVPTemps 2.97815489769
INFO: Time to complete logcount 0 = 6.86356592178
INFO: Time to complete Phase 126.0 = 11.6365160942
INFO: Using phase 129.0 and siggenpwrlevel 17.0 DBM -- TX test.
INFO: Time to do setUVPhase 4.29830288887
INFO: Time to getDacqData 0.538170099258
Measure Phase -- Ch1to2 Phase raw 1.203E+01 Phase 12.03
Measure Phase -- Ch1to3 Phase raw 8.936E+01 Phase 89.36
Measure Phase -- Ch1to4 Phase raw 4.690E+01 Phase 46.9
INFO: Time to getOSCPhase 3.10926699638
INFO: Time to getUVPTemps 2.41168403625
INFO: Time to complete logcount 0 = 6.29338407516
INFO: Time to complete Phase 129.0 = 11.060587883
INFO: Using phase 132.0 and siggenpwrlevel 17.0 DBM -- TX test.
INFO: Time to do setUVPhase 4.3178088665
INFO: Time to getDacqData 0.587481021881
Measure Phase -- Ch1to2 Phase raw 8.49E+00 Phase 8.49
Measure Phase -- Ch1to3 Phase raw 8.025E+01 Phase 80.25
Measure Phase -- Ch1to4 Phase raw 4.697E+01 Phase 46.97
INFO: Time to getOSCPhase 3.102009058
INFO: Time to getUVPTemps 2.37546300888
INFO: Time to complete logcount 0 = 6.29746603966
INFO: Time to complete Phase 132.0 = 11.0838940144
INFO: Using phase 135.0 and siggenpwrlevel 17.0 DBM -- TX test.
INFO: Time to do setUVPhase 4.27432203293
INFO: Time to getDacqData 0.576146841049
Measure Phase -- Ch1to2 Phase raw 1.741E+01 Phase 17.41
Measure Phase -- Ch1to3 Phase raw 9.397E+01 Phase 93.97
Measure Phase -- Ch1to4 Phase raw 5.276E+01 Phase 52.76
INFO: Time to getOSCPhase 3.11335802078
INFO: Time to getUVPTemps 2.41215419769
INFO: Time to complete logcount 0 = 6.3345489502
INFO: Time to complete Phase 135.0 = 11.0743551254
INFO: Using phase 138.0 and siggenpwrlevel 17.0 DBM -- TX test.
INFO: Time to do setUVPhase 4.30684089661
INFO: Time to getDacqData 0.592797040939
Measure Phase -- Ch1to2 Phase raw 1.300E+01 Phase 13.0
Measure Phase -- Ch1to3 Phase raw 9.084E+01 Phase 90.84
Measure Phase -- Ch1to4 Phase raw 5.313E+01 Phase 53.13
INFO: Time to getOSCPhase 3.10981321335
INFO: Time to getUVPTemps 2.37395620346
INFO: Time to complete logcount 0 = 6.30831193924
INFO: Time to complete Phase 138.0 = 11.0858778954
INFO: Using phase 141.0 and siggenpwrlevel 17.0 DBM -- TX test.
INFO: Time to do setUVPhase 4.30444312096
INFO: Time to getDacqData 0.537206888199
Measure Phase -- Ch1to2 Phase raw 1.943E+01 Phase 19.43
Measure Phase -- Ch1to3 Phase raw 9.304E+01 Phase 93.04
Measure Phase -- Ch1to4 Phase raw 5.473E+01 Phase 54.73
INFO: Time to getOSCPhase 3.11967992783
INFO: Time to getUVPTemps 2.37358093262
INFO: Time to complete logcount 0 = 6.26516509056
INFO: Time to complete Phase 141.0 = 11.0330650806
INFO: Using phase 144.0 and siggenpwrlevel 17.0 DBM -- TX test.
INFO: Time to do setUVPhase 4.29118394852
INFO: Time to getDacqData 0.540671110153
Measure Phase -- Ch1to2 Phase raw 2.355E+01 Phase 23.55
Measure Phase -- Ch1to3 Phase raw 9.893E+01 Phase 98.93
Measure Phase -- Ch1to4 Phase raw 5.380E+01 Phase 53.8
INFO: Time to getOSCPhase 3.09778499603
INFO: Time to getUVPTemps 2.37525510788
INFO: Time to complete logcount 0 = 6.24824118614
INFO: Time to complete Phase 144.0 = 11.0055909157
INFO: Using phase 147.0 and siggenpwrlevel 17.0 DBM -- TX test.
INFO: Time to do setUVPhase 4.29622292519
INFO: Time to getDacqData 0.556594848633
Measure Phase -- Ch1to2 Phase raw 2.347E+01 Phase 23.47
Measure Phase -- Ch1to3 Phase raw 1.0575E+02 Phase 105.75
Measure Phase -- Ch1to4 Phase raw 6.066E+01 Phase 60.66
INFO: Time to getOSCPhase 3.10961604118
INFO: Time to getUVPTemps 2.37567806244
INFO: Time to complete logcount 0 = 6.27681994438
INFO: Time to complete Phase 147.0 = 11.0394320488
INFO: Using phase 150.0 and siggenpwrlevel 17.0 DBM -- TX test.
INFO: Time to do setUVPhase 4.35918903351
INFO: Time to getDacqData 0.590557813644
Measure Phase -- Ch1to2 Phase raw 2.373E+01 Phase 23.73
Measure Phase -- Ch1to3 Phase raw 1.0244E+02 Phase 102.44
Measure Phase -- Ch1to4 Phase raw 6.375E+01 Phase 63.75
INFO: Time to getOSCPhase 3.12016606331
INFO: Time to getUVPTemps 2.37274503708
INFO: Time to complete logcount 0 = 6.31543493271
INFO: Time to complete Phase 150.0 = 11.1383161545
INFO: Using phase 153.0 and siggenpwrlevel 17.0 DBM -- TX test.
INFO: Time to do setUVPhase 4.29016518593
INFO: Time to getDacqData 0.549478054047
Measure Phase -- Ch1to2 Phase raw 2.214E+01 Phase 22.14
Measure Phase -- Ch1to3 Phase raw 1.0489E+02 Phase 104.89
Measure Phase -- Ch1to4 Phase raw 6.337E+01 Phase 63.37
INFO: Time to getOSCPhase 3.10914206505
INFO: Time to getUVPTemps 2.37710404396
INFO: Time to complete logcount 0 = 6.26761889458
INFO: Time to complete Phase 153.0 = 11.0236799717
INFO: Using phase 156.0 and siggenpwrlevel 17.0 DBM -- TX test.
INFO: Time to do setUVPhase 4.28325200081
INFO: Time to getDacqData 0.561648130417
Measure Phase -- Ch1to2 Phase raw 2.441E+01 Phase 24.41
Measure Phase -- Ch1to3 Phase raw 1.1425E+02 Phase 114.25
Measure Phase -- Ch1to4 Phase raw 6.120E+01 Phase 61.2
INFO: Time to getOSCPhase 3.11859607697
INFO: Time to getUVPTemps 2.41003417969
INFO: Time to complete logcount 0 = 6.32229804993
INFO: Time to complete Phase 156.0 = 11.0713129044
INFO: Using phase 159.0 and siggenpwrlevel 17.0 DBM -- TX test.
INFO: Time to do setUVPhase 4.31541895866
INFO: Time to getDacqData 0.581187963486
Measure Phase -- Ch1to2 Phase raw 2.760E+01 Phase 27.6
Measure Phase -- Ch1to3 Phase raw 1.1623E+02 Phase 116.23
Measure Phase -- Ch1to4 Phase raw 6.741E+01 Phase 67.41
INFO: Time to getOSCPhase 3.11299800873
INFO: Time to getUVPTemps 2.37443900108
INFO: Time to complete logcount 0 = 6.30308699608
INFO: Time to complete Phase 159.0 = 11.0883309841
INFO: Using phase 162.0 and siggenpwrlevel 17.0 DBM -- TX test.
INFO: Time to do setUVPhase 4.28734588623
INFO: Time to getDacqData 0.549739837646
Measure Phase -- Ch1to2 Phase raw 3.221E+01 Phase 32.21
Measure Phase -- Ch1to3 Phase raw 1.1902E+02 Phase 119.02
Measure Phase -- Ch1to4 Phase raw 7.714E+01 Phase 77.14
INFO: Time to getOSCPhase 3.1132979393
INFO: Time to getUVPTemps 2.37447190285
INFO: Time to complete logcount 0 = 6.27357912064
INFO: Time to complete Phase 162.0 = 11.030397892
INFO: Using phase 165.0 and siggenpwrlevel 17.0 DBM -- TX test.
INFO: Time to do setUVPhase 4.25641202927
INFO: Time to getDacqData 0.583564996719
Measure Phase -- Ch1to2 Phase raw 4.027E+01 Phase 40.27
Measure Phase -- Ch1to3 Phase raw 1.2303E+02 Phase 123.03
Measure Phase -- Ch1to4 Phase raw 7.469E+01 Phase 74.69
INFO: Time to getOSCPhase 3.11176490784
INFO: Time to getUVPTemps 2.37744998932
INFO: Time to complete logcount 0 = 6.30433106422
INFO: Time to complete Phase 165.0 = 11.0309400558
INFO: Using phase 168.0 and siggenpwrlevel 17.0 DBM -- TX test.
INFO: Time to do setUVPhase 4.31483983994
INFO: Time to getDacqData 0.620200157166
Measure Phase -- Ch1to2 Phase raw 3.737E+01 Phase 37.37
Measure Phase -- Ch1to3 Phase raw 1.2054E+02 Phase 120.54
Measure Phase -- Ch1to4 Phase raw 7.119E+01 Phase 71.19
INFO: Time to getOSCPhase 3.1191740036
INFO: Time to getUVPTemps 2.37994003296
INFO: Time to complete logcount 0 = 6.3550388813
INFO: Time to complete Phase 168.0 = 11.1410369873
INFO: Using phase 171.0 and siggenpwrlevel 17.0 DBM -- TX test.
INFO: Time to do setUVPhase 4.2535879612
INFO: Time to getDacqData 0.573223829269
Measure Phase -- Ch1to2 Phase raw 4.549E+01 Phase 45.49
Measure Phase -- Ch1to3 Phase raw 1.3155E+02 Phase 131.55
Measure Phase -- Ch1to4 Phase raw 8.338E+01 Phase 83.38
INFO: Time to getOSCPhase 3.12026691437
INFO: Time to getUVPTemps 2.38085412979
INFO: Time to complete logcount 0 = 6.30863285065
INFO: Time to complete Phase 171.0 = 11.0274231434
INFO: Using phase 174.0 and siggenpwrlevel 17.0 DBM -- TX test.
INFO: Time to do setUVPhase 4.3000638485
INFO: Time to getDacqData 0.625035047531
Measure Phase -- Ch1to2 Phase raw 4.061E+01 Phase 40.61
Measure Phase -- Ch1to3 Phase raw 1.2510E+02 Phase 125.1
Measure Phase -- Ch1to4 Phase raw 7.634E+01 Phase 76.34
INFO: Time to getOSCPhase 3.12602591515
INFO: Time to getUVPTemps 2.37422204018
INFO: Time to complete logcount 0 = 6.36018490791
INFO: Time to complete Phase 174.0 = 11.1358938217
INFO: Using phase 177.0 and siggenpwrlevel 17.0 DBM -- TX test.
INFO: Time to do setUVPhase 4.34237098694
INFO: Time to getDacqData 0.580276966095
Measure Phase -- Ch1to2 Phase raw 5.084E+01 Phase 50.84
Measure Phase -- Ch1to3 Phase raw 1.3801E+02 Phase 138.01
Measure Phase -- Ch1to4 Phase raw 8.363E+01 Phase 83.63
INFO: Time to getOSCPhase 3.11930394173
INFO: Time to getUVPTemps 2.37506699562
INFO: Time to complete logcount 0 = 6.30675601959
INFO: Time to complete Phase 177.0 = 11.1194298267
INFO: Using phase 180.0 and siggenpwrlevel 17.0 DBM -- TX test.
INFO: Time to do setUVPhase 4.29073286057
INFO: Time to getDacqData 0.541620969772
Measure Phase -- Ch1to2 Phase raw 4.556E+01 Phase 45.56
Measure Phase -- Ch1to3 Phase raw 1.3825E+02 Phase 138.25
Measure Phase -- Ch1to4 Phase raw 8.120E+01 Phase 81.2
INFO: Time to getOSCPhase 3.1098818779
INFO: Time to getUVPTemps 2.37475299835
INFO: Time to complete logcount 0 = 6.26016807556
INFO: Time to complete Phase 180.0 = 11.0177509785
INFO: Using phase 183.0 and siggenpwrlevel 17.0 DBM -- TX test.
INFO: Time to do setUVPhase 4.30642795563
INFO: Time to getDacqData 0.531287193298
Measure Phase -- Ch1to2 Phase raw 5.556E+01 Phase 55.56
Measure Phase -- Ch1to3 Phase raw 1.4051E+02 Phase 140.51
Measure Phase -- Ch1to4 Phase raw 9.663E+01 Phase 96.63
INFO: Time to getOSCPhase 3.11254620552
INFO: Time to getUVPTemps 2.37368106842
INFO: Time to complete logcount 0 = 6.25215792656
INFO: Time to complete Phase 183.0 = 11.0311410427
INFO: Using phase 186.0 and siggenpwrlevel 17.0 DBM -- TX test.
INFO: Time to do setUVPhase 4.30537796021
INFO: Time to getDacqData 0.534825086594
Measure Phase -- Ch1to2 Phase raw 5.372E+01 Phase 53.72
Measure Phase -- Ch1to3 Phase raw 1.3782E+02 Phase 137.82
Measure Phase -- Ch1to4 Phase raw 9.873E+01 Phase 98.73
INFO: Time to getOSCPhase 3.12255096436
INFO: Time to getUVPTemps 2.37333488464
INFO: Time to complete logcount 0 = 6.26543188095
INFO: Time to complete Phase 186.0 = 11.0367958546
INFO: Using phase 189.0 and siggenpwrlevel 17.0 DBM -- TX test.
INFO: Time to do setUVPhase 4.31481385231
INFO: Time to getDacqData 0.623297214508
Measure Phase -- Ch1to2 Phase raw 5.821E+01 Phase 58.21
Measure Phase -- Ch1to3 Phase raw 1.4337E+02 Phase 143.37
Measure Phase -- Ch1to4 Phase raw 9.112E+01 Phase 91.12
INFO: Time to getOSCPhase 3.10018706322
INFO: Time to getUVPTemps 2.37392115593
INFO: Time to complete logcount 0 = 6.32981014252
INFO: Time to complete Phase 189.0 = 11.1091098785
INFO: Using phase 192.0 and siggenpwrlevel 17.0 DBM -- TX test.
INFO: Time to do setUVPhase 4.29573917389
INFO: Time to getDacqData 0.554315090179
Measure Phase -- Ch1to2 Phase raw 5.921E+01 Phase 59.21
Measure Phase -- Ch1to3 Phase raw 1.4468E+02 Phase 144.68
Measure Phase -- Ch1to4 Phase raw 1.0048E+02 Phase 100.48
INFO: Time to getOSCPhase 3.09989190102
INFO: Time to getUVPTemps 2.37354588509
INFO: Time to complete logcount 0 = 6.26302981377
INFO: Time to complete Phase 192.0 = 11.0270311832
INFO: Using phase 195.0 and siggenpwrlevel 17.0 DBM -- TX test.
INFO: Time to do setUVPhase 4.29947590828
INFO: Time to getDacqData 0.552409172058
Measure Phase -- Ch1to2 Phase raw 6.134E+01 Phase 61.34
Measure Phase -- Ch1to3 Phase raw 1.4511E+02 Phase 145.11
Measure Phase -- Ch1to4 Phase raw 1.0373E+02 Phase 103.73
INFO: Time to getOSCPhase 3.11053705215
INFO: Time to getUVPTemps 2.37428283691
INFO: Time to complete logcount 0 = 6.2719681263
INFO: Time to complete Phase 195.0 = 11.0405199528
INFO: Using phase 198.0 and siggenpwrlevel 17.0 DBM -- TX test.
INFO: Time to do setUVPhase 4.30433392525
INFO: Time to getDacqData 0.536775827408
Measure Phase -- Ch1to2 Phase raw 6.567E+01 Phase 65.67
Measure Phase -- Ch1to3 Phase raw 1.5113E+02 Phase 151.13
Measure Phase -- Ch1to4 Phase raw 1.0810E+02 Phase 108.1
INFO: Time to getOSCPhase 3.11035609245
INFO: Time to getUVPTemps 2.37434005737
INFO: Time to complete logcount 0 = 6.25619196892
INFO: Time to complete Phase 198.0 = 11.0276620388
INFO: Using phase 201.0 and siggenpwrlevel 17.0 DBM -- TX test.
INFO: Time to do setUVPhase 4.29587197304
INFO: Time to getDacqData 0.549046993256
Measure Phase -- Ch1to2 Phase raw 7.590E+01 Phase 75.9
Measure Phase -- Ch1to3 Phase raw 1.6132E+02 Phase 161.32
Measure Phase -- Ch1to4 Phase raw 1.0898E+02 Phase 108.98
INFO: Time to getOSCPhase 3.12038898468
INFO: Time to getUVPTemps 2.32946705818
INFO: Time to complete logcount 0 = 6.23351097107
INFO: Time to complete Phase 201.0 = 10.993129015
INFO: Using phase 204.0 and siggenpwrlevel 17.0 DBM -- TX test.
INFO: Time to do setUVPhase 4.35840511322
INFO: Time to getDacqData 0.618396997452
Measure Phase -- Ch1to2 Phase raw 7.689E+01 Phase 76.89
Measure Phase -- Ch1to3 Phase raw 1.6036E+02 Phase 160.36
Measure Phase -- Ch1to4 Phase raw 1.2120E+02 Phase 121.2
INFO: Time to getOSCPhase 3.11987709999
INFO: Time to getUVPTemps 2.41124606133
INFO: Time to complete logcount 0 = 6.38147115707
INFO: Time to complete Phase 204.0 = 11.2108719349
INFO: Using phase 207.0 and siggenpwrlevel 17.0 DBM -- TX test.
INFO: Time to do setUVPhase 4.31652903557
INFO: Time to getDacqData 0.583655118942
Measure Phase -- Ch1to2 Phase raw 7.226E+01 Phase 72.26
Measure Phase -- Ch1to3 Phase raw 1.5535E+02 Phase 155.35
Measure Phase -- Ch1to4 Phase raw 1.1644E+02 Phase 116.44
INFO: Time to getOSCPhase 3.11179900169
INFO: Time to getUVPTemps 2.41020798683
INFO: Time to complete logcount 0 = 6.3406689167
INFO: Time to complete Phase 207.0 = 11.1208598614
INFO: Using phase 210.0 and siggenpwrlevel 17.0 DBM -- TX test.
INFO: Time to do setUVPhase 4.28575110435
INFO: Time to getDacqData 0.624566078186
Measure Phase -- Ch1to2 Phase raw 7.903E+01 Phase 79.03
Measure Phase -- Ch1to3 Phase raw 1.6326E+02 Phase 163.26
Measure Phase -- Ch1to4 Phase raw 1.2416E+02 Phase 124.16
INFO: Time to getOSCPhase 3.12101197243
INFO: Time to getUVPTemps 2.37814188004
INFO: Time to complete logcount 0 = 6.3582201004
INFO: Time to complete Phase 210.0 = 11.1075959206
INFO: Using phase 213.0 and siggenpwrlevel 17.0 DBM -- TX test.
INFO: Time to do setUVPhase 4.29767298698
INFO: Time to getDacqData 0.532972097397
Measure Phase -- Ch1to2 Phase raw 8.058E+01 Phase 80.58
Measure Phase -- Ch1to3 Phase raw -1.9647E+02 Phase 163.53
Measure Phase -- Ch1to4 Phase raw 1.1981E+02 Phase 119.81
INFO: Time to getOSCPhase 3.11327505112
INFO: Time to getUVPTemps 2.40999293327
INFO: Time to complete logcount 0 = 6.29145312309
INFO: Time to complete Phase 213.0 = 11.0529549122
INFO: Using phase 216.0 and siggenpwrlevel 17.0 DBM -- TX test.
INFO: Time to do setUVPhase 4.34559392929
INFO: Time to getDacqData 0.56382894516
Measure Phase -- Ch1to2 Phase raw 9.040E+01 Phase 90.4
Measure Phase -- Ch1to3 Phase raw -1.8592E+02 Phase 174.08
Measure Phase -- Ch1to4 Phase raw 1.3054E+02 Phase 130.54
INFO: Time to getOSCPhase 3.12043094635
INFO: Time to getUVPTemps 2.3791539669
INFO: Time to complete logcount 0 = 6.29733896255
INFO: Time to complete Phase 216.0 = 11.1067969799
INFO: Using phase 219.0 and siggenpwrlevel 17.0 DBM -- TX test.
INFO: Time to do setUVPhase 4.30746006966
INFO: Time to getDacqData 0.625658988953
Measure Phase -- Ch1to2 Phase raw 7.984E+01 Phase 79.84
Measure Phase -- Ch1to3 Phase raw 1.6634E+02 Phase 166.34
Measure Phase -- Ch1to4 Phase raw 1.2397E+02 Phase 123.97
INFO: Time to getOSCPhase 3.12200307846
INFO: Time to getUVPTemps 2.37748908997
INFO: Time to complete logcount 0 = 6.35698795319
INFO: Time to complete Phase 219.0 = 11.1427400112
INFO: Using phase 222.0 and siggenpwrlevel 17.0 DBM -- TX test.
INFO: Time to do setUVPhase 4.27531695366
INFO: Time to getDacqData 0.539818048477
Measure Phase -- Ch1to2 Phase raw 8.823E+01 Phase 88.23
Measure Phase -- Ch1to3 Phase raw -1.8428E+02 Phase 175.72
Measure Phase -- Ch1to4 Phase raw 1.2705E+02 Phase 127.05
INFO: Time to getOSCPhase 3.1209359169
INFO: Time to getUVPTemps 2.37281107903
INFO: Time to complete logcount 0 = 6.26834392548
INFO: Time to complete Phase 222.0 = 11.0115859509
INFO: Using phase 225.0 and siggenpwrlevel 17.0 DBM -- TX test.
INFO: Time to do setUVPhase 4.33906292915
INFO: Time to getDacqData 0.596550941467
Measure Phase -- Ch1to2 Phase raw 9.305E+01 Phase 93.05
Measure Phase -- Ch1to3 Phase raw -1.8391E+02 Phase 176.09
Measure Phase -- Ch1to4 Phase raw 1.3409E+02 Phase 134.09
INFO: Time to getOSCPhase 3.12011790276
INFO: Time to getUVPTemps 2.37445521355
INFO: Time to complete logcount 0 = 6.32357215881
INFO: Time to complete Phase 225.0 = 11.1303510666
INFO: Using phase 228.0 and siggenpwrlevel 17.0 DBM -- TX test.
INFO: Time to do setUVPhase 4.31072902679
INFO: Time to getDacqData 0.629998207092
Measure Phase -- Ch1to2 Phase raw 9.615E+01 Phase 96.15
Measure Phase -- Ch1to3 Phase raw -1.7522E+02 Phase 184.78
Measure Phase -- Ch1to4 Phase raw 1.4082E+02 Phase 140.82
INFO: Time to getOSCPhase 3.10949206352
INFO: Time to getUVPTemps 2.37431883812
INFO: Time to complete logcount 0 = 6.34526896477
INFO: Time to complete Phase 228.0 = 11.1197271347
INFO: Using phase 231.0 and siggenpwrlevel 17.0 DBM -- TX test.
INFO: Time to do setUVPhase 4.26805305481
INFO: Time to getDacqData 0.574614048004
Measure Phase -- Ch1to2 Phase raw 9.798E+01 Phase 97.98
Measure Phase -- Ch1to3 Phase raw -1.7122E+02 Phase 188.78
Measure Phase -- Ch1to4 Phase raw 1.4106E+02 Phase 141.06
INFO: Time to getOSCPhase 3.11931395531
INFO: Time to getUVPTemps 2.3770840168
INFO: Time to complete logcount 0 = 6.30584597588
INFO: Time to complete Phase 231.0 = 11.0424740314
INFO: Using phase 234.0 and siggenpwrlevel 17.0 DBM -- TX test.
INFO: Time to do setUVPhase 4.33865594864
INFO: Time to getDacqData 0.585850000381
Measure Phase -- Ch1to2 Phase raw 9.982E+01 Phase 99.82
Measure Phase -- Ch1to3 Phase raw -1.6584E+02 Phase 194.16
Measure Phase -- Ch1to4 Phase raw 1.4396E+02 Phase 143.96
INFO: Time to getOSCPhase 3.12012481689
INFO: Time to getUVPTemps 2.37763810158
INFO: Time to complete logcount 0 = 6.31822800636
INFO: Time to complete Phase 234.0 = 11.1307649612
INFO: Using phase 237.0 and siggenpwrlevel 17.0 DBM -- TX test.
INFO: Time to do setUVPhase 4.27736091614
INFO: Time to getDacqData 0.551971912384
Measure Phase -- Ch1to2 Phase raw 9.546E+01 Phase 95.46
Measure Phase -- Ch1to3 Phase raw -1.7195E+02 Phase 188.05
Measure Phase -- Ch1to4 Phase raw 1.4237E+02 Phase 142.37
INFO: Time to getOSCPhase 3.11106014252
INFO: Time to getUVPTemps 2.37326192856
INFO: Time to complete logcount 0 = 6.27104496956
INFO: Time to complete Phase 237.0 = 11.0154628754
INFO: Using phase 240.0 and siggenpwrlevel 17.0 DBM -- TX test.
INFO: Time to do setUVPhase 4.30234408379
INFO: Time to getDacqData 0.543971061707
Measure Phase -- Ch1to2 Phase raw 1.1207E+02 Phase 112.07
Measure Phase -- Ch1to3 Phase raw -1.6259E+02 Phase 197.41
Measure Phase -- Ch1to4 Phase raw 1.5365E+02 Phase 153.65
INFO: Time to getOSCPhase 3.11164188385
INFO: Time to getUVPTemps 2.37494492531
INFO: Time to complete logcount 0 = 6.26219391823
INFO: Time to complete Phase 240.0 = 11.0321500301
INFO: Using phase 243.0 and siggenpwrlevel 17.0 DBM -- TX test.
INFO: Time to do setUVPhase 4.28631305695
INFO: Time to getDacqData 0.549737930298
Measure Phase -- Ch1to2 Phase raw 1.0997E+02 Phase 109.97
Measure Phase -- Ch1to3 Phase raw -1.5557E+02 Phase 204.43
Measure Phase -- Ch1to4 Phase raw 1.5272E+02 Phase 152.72
INFO: Time to getOSCPhase 3.12118506432
INFO: Time to getUVPTemps 2.38045191765
INFO: Time to complete logcount 0 = 6.28628587723
INFO: Time to complete Phase 243.0 = 11.0420930386
INFO: Using phase 246.0 and siggenpwrlevel 17.0 DBM -- TX test.
INFO: Time to do setUVPhase 4.32381081581
INFO: Time to getDacqData 0.608760118484
Measure Phase -- Ch1to2 Phase raw 1.0456E+02 Phase 104.56
Measure Phase -- Ch1to3 Phase raw -1.6066E+02 Phase 199.34
Measure Phase -- Ch1to4 Phase raw 1.5093E+02 Phase 150.93
INFO: Time to getOSCPhase 3.11133599281
INFO: Time to getUVPTemps 2.37453103065
INFO: Time to complete logcount 0 = 6.32663488388
INFO: Time to complete Phase 246.0 = 11.1156218052
INFO: Using phase 249.0 and siggenpwrlevel 17.0 DBM -- TX test.
INFO: Time to do setUVPhase 4.31260514259
INFO: Time to getDacqData 0.630945205688
Measure Phase -- Ch1to2 Phase raw 1.1357E+02 Phase 113.57
Measure Phase -- Ch1to3 Phase raw -1.4609E+02 Phase 213.91
Measure Phase -- Ch1to4 Phase raw 1.6123E+02 Phase 161.23
INFO: Time to getOSCPhase 3.09940481186
INFO: Time to getUVPTemps 2.37645792961
INFO: Time to complete logcount 0 = 6.33931708336
INFO: Time to complete Phase 249.0 = 11.1200039387
INFO: Using phase 252.0 and siggenpwrlevel 17.0 DBM -- TX test.
INFO: Time to do setUVPhase 4.30004310608
INFO: Time to getDacqData 0.55538892746
Measure Phase -- Ch1to2 Phase raw 1.1117E+02 Phase 111.17
Measure Phase -- Ch1to3 Phase raw -1.5027E+02 Phase 209.73
Measure Phase -- Ch1to4 Phase raw 1.5459E+02 Phase 154.59
INFO: Time to getOSCPhase 3.09898614883
INFO: Time to getUVPTemps 2.37660002708
INFO: Time to complete logcount 0 = 6.26275777817
INFO: Time to complete Phase 252.0 = 11.0289459229
INFO: Using phase 255.0 and siggenpwrlevel 17.0 DBM -- TX test.
INFO: Time to do setUVPhase 4.30798983574
INFO: Time to getDacqData 0.542159080505
Measure Phase -- Ch1to2 Phase raw 1.1064E+02 Phase 110.64
Measure Phase -- Ch1to3 Phase raw -1.5020E+02 Phase 209.8
Measure Phase -- Ch1to4 Phase raw 1.5599E+02 Phase 155.99
INFO: Time to getOSCPhase 3.10992503166
INFO: Time to getUVPTemps 2.37481689453
INFO: Time to complete logcount 0 = 6.26103401184
INFO: Time to complete Phase 255.0 = 11.0356659889
INFO: Using phase 258.0 and siggenpwrlevel 17.0 DBM -- TX test.
INFO: Time to do setUVPhase 4.2996840477
INFO: Time to getDacqData 0.537673950195
Measure Phase -- Ch1to2 Phase raw 1.2408E+02 Phase 124.08
Measure Phase -- Ch1to3 Phase raw -1.3929E+02 Phase 220.71
Measure Phase -- Ch1to4 Phase raw -1.9149E+02 Phase 168.51
INFO: Time to getOSCPhase 3.11135196686
INFO: Time to getUVPTemps 2.38014698029
INFO: Time to complete logcount 0 = 6.26569700241
INFO: Time to complete Phase 258.0 = 11.0313539505
INFO: Using phase 261.0 and siggenpwrlevel 17.0 DBM -- TX test.
INFO: Time to do setUVPhase 4.34054708481
INFO: Time to getDacqData 0.595371961594
Measure Phase -- Ch1to2 Phase raw 1.2000E+02 Phase 120.0
Measure Phase -- Ch1to3 Phase raw -1.3971E+02 Phase 220.29
Measure Phase -- Ch1to4 Phase raw -1.9118E+02 Phase 168.82
INFO: Time to getOSCPhase 3.10882091522
INFO: Time to getUVPTemps 2.37351608276
INFO: Time to complete logcount 0 = 6.31281685829
INFO: Time to complete Phase 261.0 = 11.1187491417
INFO: Using phase 264.0 and siggenpwrlevel 17.0 DBM -- TX test.
INFO: Time to do setUVPhase 4.30503702164
INFO: Time to getDacqData 0.540323972702
Measure Phase -- Ch1to2 Phase raw 1.2915E+02 Phase 129.15
Measure Phase -- Ch1to3 Phase raw -1.3217E+02 Phase 227.83
Measure Phase -- Ch1to4 Phase raw -1.8545E+02 Phase 174.55
INFO: Time to getOSCPhase 3.11042094231
INFO: Time to getUVPTemps 2.41096305847
INFO: Time to complete logcount 0 = 6.29548096657
INFO: Time to complete Phase 264.0 = 11.0662457943
INFO: Using phase 267.0 and siggenpwrlevel 17.0 DBM -- TX test.
INFO: Time to do setUVPhase 4.29257392883
INFO: Time to getDacqData 0.614789009094
Measure Phase -- Ch1to2 Phase raw 1.2979E+02 Phase 129.79
Measure Phase -- Ch1to3 Phase raw -1.3534E+02 Phase 224.66
Measure Phase -- Ch1to4 Phase raw -1.8409E+02 Phase 175.91
INFO: Time to getOSCPhase 3.11167311668
INFO: Time to getUVPTemps 2.3767118454
INFO: Time to complete logcount 0 = 6.33477115631
INFO: Time to complete Phase 267.0 = 11.0958900452
INFO: Using phase 270.0 and siggenpwrlevel 17.0 DBM -- TX test.
INFO: Time to do setUVPhase 4.28931093216
INFO: Time to getDacqData 0.541996002197
Measure Phase -- Ch1to2 Phase raw 1.3247E+02 Phase 132.47
Measure Phase -- Ch1to3 Phase raw -1.3278E+02 Phase 227.22
Measure Phase -- Ch1to4 Phase raw -1.8638E+02 Phase 173.62
INFO: Time to getOSCPhase 3.11278510094
INFO: Time to getUVPTemps 2.37500500679
INFO: Time to complete logcount 0 = 6.26486206055
INFO: Time to complete Phase 270.0 = 11.0362451077
INFO: Using phase 273.0 and siggenpwrlevel 17.0 DBM -- TX test.
INFO: Time to do setUVPhase 4.30267596245
INFO: Time to getDacqData 0.618676185608
Measure Phase -- Ch1to2 Phase raw 1.3953E+02 Phase 139.53
Measure Phase -- Ch1to3 Phase raw -1.3078E+02 Phase 229.22
Measure Phase -- Ch1to4 Phase raw -1.8441E+02 Phase 175.59
INFO: Time to getOSCPhase 3.10967898369
INFO: Time to getUVPTemps 2.3735768795
INFO: Time to complete logcount 0 = 6.33659911156
INFO: Time to complete Phase 273.0 = 11.1110219955
INFO: Using phase 276.0 and siggenpwrlevel 17.0 DBM -- TX test.
INFO: Time to do setUVPhase 4.29117488861
INFO: Time to getDacqData 0.549534082413
Measure Phase -- Ch1to2 Phase raw 1.4618E+02 Phase 146.18
Measure Phase -- Ch1to3 Phase raw -1.2680E+02 Phase 233.2
Measure Phase -- Ch1to4 Phase raw -1.7790E+02 Phase 182.1
INFO: Time to getOSCPhase 3.14061307907
INFO: Time to getUVPTemps 2.37489700317
INFO: Time to complete logcount 0 = 6.29702401161
INFO: Time to complete Phase 276.0 = 11.0593750477
INFO: Using phase 279.0 and siggenpwrlevel 17.0 DBM -- TX test.
INFO: Time to do setUVPhase 4.30249094963
INFO: Time to getDacqData 0.50871014595
Measure Phase -- Ch1to2 Phase raw 1.4683E+02 Phase 146.83
Measure Phase -- Ch1to3 Phase raw -1.2788E+02 Phase 232.12
Measure Phase -- Ch1to4 Phase raw -1.7427E+02 Phase 185.73
INFO: Time to getOSCPhase 3.10813808441
INFO: Time to getUVPTemps 2.37579703331
INFO: Time to complete logcount 0 = 6.22381401062
INFO: Time to complete Phase 279.0 = 10.9927461147
INFO: Using phase 282.0 and siggenpwrlevel 17.0 DBM -- TX test.
INFO: Time to do setUVPhase 4.31619811058
INFO: Time to getDacqData 0.626239061356
Measure Phase -- Ch1to2 Phase raw 1.5541E+02 Phase 155.41
Measure Phase -- Ch1to3 Phase raw -1.1869E+02 Phase 241.31
Measure Phase -- Ch1to4 Phase raw -1.6511E+02 Phase 194.89
INFO: Time to getOSCPhase 3.11017394066
INFO: Time to getUVPTemps 2.37461614609
INFO: Time to complete logcount 0 = 6.34306502342
INFO: Time to complete Phase 282.0 = 11.1290531158
INFO: Using phase 285.0 and siggenpwrlevel 17.0 DBM -- TX test.
INFO: Time to do setUVPhase 4.31356310844
INFO: Time to getDacqData 0.631993770599
Measure Phase -- Ch1to2 Phase raw 1.5385E+02 Phase 153.85
Measure Phase -- Ch1to3 Phase raw -1.1506E+02 Phase 244.94
Measure Phase -- Ch1to4 Phase raw -1.6186E+02 Phase 198.14
INFO: Time to getOSCPhase 3.1198182106
INFO: Time to getUVPTemps 2.37352514267
INFO: Time to complete logcount 0 = 6.35659599304
INFO: Time to complete Phase 285.0 = 11.1348509789
INFO: Using phase 288.0 and siggenpwrlevel 17.0 DBM -- TX test.
INFO: Time to do setUVPhase 4.30372714996
INFO: Time to getDacqData 0.625326871872
Measure Phase -- Ch1to2 Phase raw 1.6777E+02 Phase 167.77
Measure Phase -- Ch1to3 Phase raw -1.0698E+02 Phase 253.02
Measure Phase -- Ch1to4 Phase raw -1.5917E+02 Phase 200.83
INFO: Time to getOSCPhase 3.11210179329
INFO: Time to getUVPTemps 2.37925100327
INFO: Time to complete logcount 0 = 6.34847807884
INFO: Time to complete Phase 288.0 = 11.1219320297
INFO: Using phase 291.0 and siggenpwrlevel 17.0 DBM -- TX test.
INFO: Time to do setUVPhase 4.32595896721
INFO: Time to getDacqData 0.608367919922
Measure Phase -- Ch1to2 Phase raw 1.6688E+02 Phase 166.88
Measure Phase -- Ch1to3 Phase raw -1.1517E+02 Phase 244.83
Measure Phase -- Ch1to4 Phase raw -1.5536E+02 Phase 204.64
INFO: Time to getOSCPhase 3.10852789879
INFO: Time to getUVPTemps 2.38376617432
INFO: Time to complete logcount 0 = 6.33571100235
INFO: Time to complete Phase 291.0 = 11.1290659904
INFO: Using phase 294.0 and siggenpwrlevel 17.0 DBM -- TX test.
INFO: Time to do setUVPhase 4.30895709991
INFO: Time to getDacqData 0.624838113785
Measure Phase -- Ch1to2 Phase raw 1.6705E+02 Phase 167.05
Measure Phase -- Ch1to3 Phase raw -1.1723E+02 Phase 242.77
Measure Phase -- Ch1to4 Phase raw -1.5602E+02 Phase 203.98
INFO: Time to getOSCPhase 3.12025809288
INFO: Time to getUVPTemps 2.3747189045
INFO: Time to complete logcount 0 = 6.35135602951
INFO: Time to complete Phase 294.0 = 11.1298210621
INFO: Using phase 297.0 and siggenpwrlevel 17.0 DBM -- TX test.
INFO: Time to do setUVPhase 4.28317284584
INFO: Time to getDacqData 0.547893047333
Measure Phase -- Ch1to2 Phase raw 1.6935E+02 Phase 169.35
Measure Phase -- Ch1to3 Phase raw -1.1042E+02 Phase 249.58
Measure Phase -- Ch1to4 Phase raw -1.5390E+02 Phase 206.1
INFO: Time to getOSCPhase 3.11126112938
INFO: Time to getUVPTemps 2.37600302696
INFO: Time to complete logcount 0 = 6.26988482475
INFO: Time to complete Phase 297.0 = 11.0194568634
INFO: Using phase 300.0 and siggenpwrlevel 17.0 DBM -- TX test.
INFO: Time to do setUVPhase 4.29388093948
INFO: Time to getDacqData 0.545912027359
Measure Phase -- Ch1to2 Phase raw 1.7971E+02 Phase 179.71
Measure Phase -- Ch1to3 Phase raw -1.0352E+02 Phase 256.48
Measure Phase -- Ch1to4 Phase raw -1.4520E+02 Phase 214.8
INFO: Time to getOSCPhase 3.11329102516
INFO: Time to getUVPTemps 2.40914797783
INFO: Time to complete logcount 0 = 6.30082702637
INFO: Time to complete Phase 300.0 = 11.0614528656
INFO: Using phase 303.0 and siggenpwrlevel 17.0 DBM -- TX test.
INFO: Time to do setUVPhase 4.30095410347
INFO: Time to getDacqData 0.601556062698
Measure Phase -- Ch1to2 Phase raw 1.7855E+02 Phase 178.55
Measure Phase -- Ch1to3 Phase raw -1.0661E+02 Phase 253.39
Measure Phase -- Ch1to4 Phase raw -1.4461E+02 Phase 215.39
INFO: Time to getOSCPhase 3.11448192596
INFO: Time to getUVPTemps 2.41243290901
INFO: Time to complete logcount 0 = 6.36149096489
INFO: Time to complete Phase 303.0 = 11.1311531067
INFO: Using phase 306.0 and siggenpwrlevel 17.0 DBM -- TX test.
INFO: Time to do setUVPhase 4.28797888756
INFO: Time to getDacqData 0.604876995087
Measure Phase -- Ch1to2 Phase raw 1.7694E+02 Phase 176.94
Measure Phase -- Ch1to3 Phase raw -1.0053E+02 Phase 259.47
Measure Phase -- Ch1to4 Phase raw -1.4275E+02 Phase 217.25
INFO: Time to getOSCPhase 3.12263011932
INFO: Time to getUVPTemps 2.3765900135
INFO: Time to complete logcount 0 = 6.34097003937
INFO: Time to complete Phase 306.0 = 11.0994138718
INFO: Using phase 309.0 and siggenpwrlevel 17.0 DBM -- TX test.
INFO: Time to do setUVPhase 4.343323946
INFO: Time to getDacqData 0.587508201599
Measure Phase -- Ch1to2 Phase raw -1.7630E+02 Phase 183.7
Measure Phase -- Ch1to3 Phase raw -9.666E+01 Phase 263.34
Measure Phase -- Ch1to4 Phase raw -1.3739E+02 Phase 222.61
INFO: Time to getOSCPhase 3.10027384758
INFO: Time to getUVPTemps 2.41221690178
INFO: Time to complete logcount 0 = 6.33465600014
INFO: Time to complete Phase 309.0 = 11.1409268379
INFO: Using phase 312.0 and siggenpwrlevel 17.0 DBM -- TX test.
INFO: Time to do setUVPhase 4.32274007797
INFO: Time to getDacqData 0.591202974319
Measure Phase -- Ch1to2 Phase raw -1.7394E+02 Phase 186.06
Measure Phase -- Ch1to3 Phase raw -9.688E+01 Phase 263.12
Measure Phase -- Ch1to4 Phase raw -1.4203E+02 Phase 217.97
INFO: Time to getOSCPhase 3.11808800697
INFO: Time to getUVPTemps 2.37500286102
INFO: Time to complete logcount 0 = 6.31879806519
INFO: Time to complete Phase 312.0 = 11.1058580875
INFO: Using phase 315.0 and siggenpwrlevel 17.0 DBM -- TX test.
INFO: Time to do setUVPhase 4.30435204506
INFO: Time to getDacqData 0.531923055649
Measure Phase -- Ch1to2 Phase raw -1.7183E+02 Phase 188.17
Measure Phase -- Ch1to3 Phase raw -9.086E+01 Phase 269.14
Measure Phase -- Ch1to4 Phase raw -1.3429E+02 Phase 225.71
INFO: Time to getOSCPhase 3.110476017
INFO: Time to getUVPTemps 2.37621092796
INFO: Time to complete logcount 0 = 6.25013303757
INFO: Time to complete Phase 315.0 = 11.020991087
INFO: Using phase 318.0 and siggenpwrlevel 17.0 DBM -- TX test.
INFO: Time to do setUVPhase 4.3069357872
INFO: Time to getDacqData 0.630323171616
Measure Phase -- Ch1to2 Phase raw 1.8736E+02 Phase 187.36
Measure Phase -- Ch1to3 Phase raw -9.249E+01 Phase 267.51
Measure Phase -- Ch1to4 Phase raw -1.3532E+02 Phase 224.68
INFO: Time to getOSCPhase 3.12238883972
INFO: Time to getUVPTemps 2.37466311455
INFO: Time to complete logcount 0 = 6.36279582977
INFO: Time to complete Phase 318.0 = 11.1461229324
INFO: Using phase 321.0 and siggenpwrlevel 17.0 DBM -- TX test.
INFO: Time to do setUVPhase 4.31802082062
INFO: Time to getDacqData 0.5998711586
Measure Phase -- Ch1to2 Phase raw -1.6249E+02 Phase 197.51
Measure Phase -- Ch1to3 Phase raw -8.514E+01 Phase 274.86
Measure Phase -- Ch1to4 Phase raw -1.2725E+02 Phase 232.75
INFO: Time to getOSCPhase 3.10821795464
INFO: Time to getUVPTemps 2.41095495224
INFO: Time to complete logcount 0 = 6.35354709625
INFO: Time to complete Phase 321.0 = 11.1410999298
INFO: Using phase 324.0 and siggenpwrlevel 17.0 DBM -- TX test.
INFO: Time to do setUVPhase 4.35716795921
INFO: Time to getDacqData 0.550271987915
Measure Phase -- Ch1to2 Phase raw -1.6296E+02 Phase 197.04
Measure Phase -- Ch1to3 Phase raw -8.091E+01 Phase 279.09
Measure Phase -- Ch1to4 Phase raw -1.2839E+02 Phase 231.61
INFO: Time to getOSCPhase 3.12254500389
INFO: Time to getUVPTemps 2.37591218948
INFO: Time to complete logcount 0 = 6.28305411339
INFO: Time to complete Phase 324.0 = 11.1055231094
INFO: Using phase 327.0 and siggenpwrlevel 17.0 DBM -- TX test.
INFO: Time to do setUVPhase 4.32188510895
INFO: Time to getDacqData 0.60275220871
Measure Phase -- Ch1to2 Phase raw -1.6188E+02 Phase 198.12
Measure Phase -- Ch1to3 Phase raw -7.892E+01 Phase 281.08
Measure Phase -- Ch1to4 Phase raw -1.2836E+02 Phase 231.64
INFO: Time to getOSCPhase 3.12084889412
INFO: Time to getUVPTemps 2.41151499748
INFO: Time to complete logcount 0 = 6.37008190155
INFO: Time to complete Phase 327.0 = 11.160752058
INFO: Using phase 330.0 and siggenpwrlevel 17.0 DBM -- TX test.
INFO: Time to do setUVPhase 4.33239793777
INFO: Time to getDacqData 0.5599629879
Measure Phase -- Ch1to2 Phase raw -1.5544E+02 Phase 204.56
Measure Phase -- Ch1to3 Phase raw -7.295E+01 Phase 287.05
Measure Phase -- Ch1to4 Phase raw -1.1845E+02 Phase 241.55
INFO: Time to getOSCPhase 3.1152100563
INFO: Time to getUVPTemps 2.38047719002
INFO: Time to complete logcount 0 = 6.28818798065
INFO: Time to complete Phase 330.0 = 11.0923948288
INFO: Using phase 333.0 and siggenpwrlevel 17.0 DBM -- TX test.
INFO: Time to do setUVPhase 4.30813789368
INFO: Time to getDacqData 0.617842912674
Measure Phase -- Ch1to2 Phase raw -1.4779E+02 Phase 212.21
Measure Phase -- Ch1to3 Phase raw -7.118E+01 Phase 288.82
Measure Phase -- Ch1to4 Phase raw -1.1853E+02 Phase 241.47
INFO: Time to getOSCPhase 3.1113550663
INFO: Time to getUVPTemps 2.37937307358
INFO: Time to complete logcount 0 = 6.34467816353
INFO: Time to complete Phase 333.0 = 11.1214568615
INFO: Using phase 336.0 and siggenpwrlevel 17.0 DBM -- TX test.
INFO: Time to do setUVPhase 4.33274722099
INFO: Time to getDacqData 0.607121944427
Measure Phase -- Ch1to2 Phase raw -1.5327E+02 Phase 206.73
Measure Phase -- Ch1to3 Phase raw -6.726E+01 Phase 292.74
Measure Phase -- Ch1to4 Phase raw -1.1995E+02 Phase 240.05
INFO: Time to getOSCPhase 3.11993408203
INFO: Time to getUVPTemps 2.37490606308
INFO: Time to complete logcount 0 = 6.33439016342
INFO: Time to complete Phase 336.0 = 11.1344320774
INFO: Using phase 339.0 and siggenpwrlevel 17.0 DBM -- TX test.
INFO: Time to do setUVPhase 4.31479001045
INFO: Time to getDacqData 0.609568119049
Measure Phase -- Ch1to2 Phase raw -1.4852E+02 Phase 211.48
Measure Phase -- Ch1to3 Phase raw -6.167E+01 Phase 298.33
Measure Phase -- Ch1to4 Phase raw -1.1709E+02 Phase 242.91
INFO: Time to getOSCPhase 3.11173605919
INFO: Time to getUVPTemps 2.37726902962
INFO: Time to complete logcount 0 = 6.33393907547
INFO: Time to complete Phase 339.0 = 11.1272950172
INFO: Using phase 342.0 and siggenpwrlevel 17.0 DBM -- TX test.
INFO: Time to do setUVPhase 4.31970405579
INFO: Time to getDacqData 0.611423015594
Measure Phase -- Ch1to2 Phase raw -1.5015E+02 Phase 209.85
Measure Phase -- Ch1to3 Phase raw -5.857E+01 Phase 301.43
Measure Phase -- Ch1to4 Phase raw -1.1316E+02 Phase 246.84
INFO: Time to getOSCPhase 3.1110868454
INFO: Time to getUVPTemps 2.37434411049
INFO: Time to complete logcount 0 = 6.3322429657
INFO: Time to complete Phase 342.0 = 11.1148428917
INFO: Using phase 345.0 and siggenpwrlevel 17.0 DBM -- TX test.
INFO: Time to do setUVPhase 4.31746196747
INFO: Time to getDacqData 0.627021074295
Measure Phase -- Ch1to2 Phase raw -1.4793E+02 Phase 212.07
Measure Phase -- Ch1to3 Phase raw -6.210E+01 Phase 297.9
Measure Phase -- Ch1to4 Phase raw -1.1138E+02 Phase 248.62
INFO: Time to getOSCPhase 3.11946392059
INFO: Time to getUVPTemps 2.37502193451
INFO: Time to complete logcount 0 = 6.35338282585
INFO: Time to complete Phase 345.0 = 11.1366248131
INFO: Using phase 348.0 and siggenpwrlevel 17.0 DBM -- TX test.
INFO: Test duration = 0 hrs 51 mins 54 secs

